year,month,day,dose1,dose2,total_dose
2021,3,1,9226,829,10055
2021,3,2,9226,829,10055
2021,3,3,9582,896,10478
2021,3,4,11471,1413,12884
2021,3,5,12616,1883,14499
2021,3,6,14599,2135,16734
2021,3,7,14599,2135,16734
2021,3,8,17072,2236,19308
2021,3,9,19919,2313,22232
2021,3,10,22924,2514,25438
2021,3,11,25706,2725,28431
2021,3,12,28226,2821,31047
2021,3,13,30743,2907,33650
2021,3,14,31232,2908,34140
2021,3,15,33250,4457,37707
2021,3,16,35187,3345,38532
2021,3,17,36299,3647,39946
2021,3,18,36916,4227,41143
2021,3,19,37427,4777,42204
2021,3,20,38003,5246,43249
2021,3,21,38035,5248,43283
2021,3,22,38476,5794,44270
2021,3,23,38823,6059,44882
2021,3,24,39015,6146,45161
2021,3,25,39097,6250,45347
2021,3,26,39181,6378,45559
2021,3,27,39298,6394,45692
2021,3,28,39298,6394,45692
2021,3,29,39298,6394,45692
2021,3,30,39387,6425,45812
2021,3,31,39516,6494,46010
2021,4,1,43775,6547,50322
2021,4,2,49210,6898,56108
2021,4,3,52961,6956,59917
2021,4,4,55645,6962,62607
2021,4,5,59196,6678,65874
2021,4,6,61203,6859,68062
2021,4,7,62881,7140,70021
2021,4,8,63903,7356,71259
2021,4,9,64284,7676,71960
2021,4,10,64518,7913,72431
2021,4,11,65236,8161,73397
2021,4,12,66115,8493,74608
2021,4,13,66540,8779,75319
2021,4,14,66813,9092,75905
2021,4,15,66918,9554,76472
2021,4,16,67005,9963,76968
2021,4,17,67157,10662,77819
2021,4,18,67185,10672,77857
2021,4,19,67732,12863,80595
2021,4,20,68954,15683,84637
2021,4,21,70012,18441,88453
2021,4,22,70599,20711,91310
2021,4,23,71353,22963,94316
2021,4,24,71714,24825,96539
2021,4,25,71734,25222,96956
2021,4,26,72754,28150,100904
2021,4,27,73508,30209,103717
2021,4,28,74000,31915,105915
2021,4,29,74391,33014,107405
2021,4,30,74661,33852,108513
2021,5,1,75007,34471,109478
2021,5,2,75063,34631,109694
2021,5,3,75687,35326,111013
2021,5,4,77203,35581,112784
2021,5,5,79168,35889,115057
2021,5,6,80912,36198,117110
