year,month,day,dose1,dose2,total_dose
2021,3,1,671302,183795,855097
2021,3,2,671302,183795,855097
2021,3,3,721751,204455,926206
2021,3,4,778691,220200,998891
2021,3,5,788184,221423,1009607
2021,3,6,858101,234666,1092767
2021,3,7,858101,234666,1092767
2021,3,8,927953,248379,1176332
2021,3,9,933934,248697,1182631
2021,3,10,1012791,275183,1287974
2021,3,11,1012791,275183,1287974
2021,3,12,1016958,277856,1294814
2021,3,13,1138321,327284,1465605
2021,3,14,1138321,327284,1465605
2021,3,15,1140637,327513,1468150
2021,3,16,1292780,371081,1663861
2021,3,17,1461627,404511,1866138
2021,3,18,1461627,404511,1866138
2021,3,19,1465679,405077,1870756
2021,3,20,1797532,430724,2228256
2021,3,21,1797532,430724,2228256
2021,3,22,2194960,467674,2662634
2021,3,23,2198228,467836,2666064
2021,3,24,2453554,478784,2932338
2021,3,25,2590041,484883,3074924
2021,3,26,2593674,484999,3078673
2021,3,27,2699003,489494,3188497
2021,3,28,2699003,489494,3188497
2021,3,29,2699003,489494,3188497
2021,3,30,2702019,489773,3191792
2021,3,31,2855859,500807,3356666
2021,4,1,3220877,515109,3735986
2021,4,2,3377402,525938,3903340
2021,4,3,3549851,533820,4083671
2021,4,4,3688501,538769,4227270
2021,4,5,3915779,547709,4463488
2021,4,6,4112933,558136,4671069
2021,4,7,4402970,570428,4973398
2021,4,8,4651144,583500,5234644
2021,4,9,4770449,591710,5362159
2021,4,10,4866689,598432,5465121
2021,4,11,5224167,615064,5839231
2021,4,12,5605688,641420,6247108
2021,4,13,5903109,658277,6561386
2021,4,14,6205422,684723,6890145
2021,4,15,6350073,708665,7058738
2021,4,16,6392966,722771,7115737
2021,4,17,6548033,757281,7305314
2021,4,18,6566455,763446,7329901
2021,4,19,6701986,805465,7507451
2021,4,20,6725635,817314,7542949
2021,4,21,6737936,828447,7566383
2021,4,22,6851566,886903,7738469
2021,4,23,6871944,902404,7774348
2021,4,24,6942969,952623,7895592
2021,4,25,6949737,958928,7908665
2021,4,26,6988485,1003232,7991717
2021,4,27,6996437,1013987,8010424
2021,4,28,7020092,1051656,8071748
2021,4,29,7022410,1054584,8076994
2021,4,30,7023032,1056496,8079528
2021,5,1,7046736,1105065,8151801
2021,5,2,7045957,1108964,8154921
2021,5,3,7060213,1162769,8222982
2021,5,4,7064866,1177868,8242734
2021,5,5,7087932,1269485,8357417
2021,5,6,7118526,1343950,8462476
