year,month,day,dose1,dose2,total_dose
2021,3,1,22819,6694,29513
2021,3,2,25374,8092,33466
2021,3,3,28350,9036,37386
2021,3,4,30949,9109,40058
2021,3,5,31804,9171,40975
2021,3,6,32984,9213,42197
2021,3,7,32984,9213,42197
2021,3,8,34814,9276,44090
2021,3,9,37761,9400,47161
2021,3,10,41288,9799,51087
2021,3,11,42920,9946,52866
2021,3,12,44223,10008,54231
2021,3,13,44703,10084,54787
2021,3,14,44703,10084,54787
2021,3,15,151622,18726,170348
2021,3,16,48736,10608,59344
2021,3,17,49392,10671,60063
2021,3,18,49814,11212,61026
2021,3,19,50055,11564,61619
2021,3,20,50501,11746,62247
2021,3,21,50501,11746,62247
2021,3,22,50754,12079,62833
2021,3,23,51146,12461,63607
2021,3,24,51375,12564,63939
2021,3,25,51831,12719,64550
2021,3,26,52575,13156,65731
2021,3,27,52575,13156,65731
2021,3,28,52575,13156,65731
2021,3,29,52576,13272,65848
2021,3,30,52785,13527,66312
2021,3,31,52859,13807,66666
2021,4,1,53603,14421,68024
2021,4,2,56979,14889,71868
2021,4,3,57050,14937,71987
2021,4,4,57059,14971,72030
2021,4,5,57835,15731,73566
2021,4,6,60838,17526,78364
2021,4,7,63880,18290,82170
2021,4,8,67481,19506,86987
2021,4,9,71542,21136,92678
2021,4,10,73635,21594,95229
2021,4,11,73847,22010,95857
2021,4,12,81107,23971,105078
2021,4,13,87337,25769,113106
2021,4,14,94675,28385,123060
2021,4,15,105266,30317,135583
2021,4,16,117031,31042,148073
2021,4,17,122337,31701,154038
2021,4,18,122419,31764,154183
2021,4,19,131788,33045,164833
2021,4,20,139761,34618,174379
2021,4,21,144527,36302,180829
2021,4,22,156092,38044,194136
2021,4,23,166665,39526,206191
2021,4,24,170791,40351,211142
2021,4,25,170859,40378,211237
2021,4,26,181154,42285,223439
2021,4,27,191462,43697,235159
2021,4,28,199993,43924,243917
2021,4,29,206116,44330,250446
2021,4,30,211363,44733,256096
2021,5,1,214013,44909,258922
2021,5,2,213937,44878,258815
2021,5,3,218489,45096,263585
2021,5,4,221756,45673,267429
2021,5,5,225105,45887,270992
2021,5,6,228855,46324,275179
