year,month,day,dose1,dose2,total_dose
2021,3,1,30251,5579,35830
2021,3,2,31432,5678,37110
2021,3,3,33810,5766,39576
2021,3,4,35222,5918,41140
2021,3,5,35901,5994,41895
2021,3,6,36626,6043,42669
2021,3,7,36626,6043,42669
2021,3,8,39036,6433,45469
2021,3,9,40755,6924,47679
2021,3,10,42504,7777,50281
2021,3,11,43972,9008,52980
2021,3,12,44508,9518,54026
2021,3,13,44734,9841,54575
2021,3,14,44747,9968,54715
2021,3,15,80477,13908,94385
2021,3,16,48238,12962,61200
2021,3,17,49248,13900,63148
2021,3,18,50642,15273,65915
2021,3,19,51428,15925,67353
2021,3,20,51682,16252,67934
2021,3,21,51682,16252,67934
2021,3,22,54152,18819,72971
2021,3,23,56667,20013,76680
2021,3,24,57853,20994,78847
2021,3,25,58818,21651,80469
2021,3,26,59450,21967,81417
2021,3,27,59603,22073,81676
2021,3,28,59603,22073,81676
2021,3,29,59620,22074,81694
2021,3,30,62104,23183,85287
2021,3,31,63473,23774,87247
2021,4,1,65168,24347,89515
2021,4,2,60743,23028,83771
2021,4,3,60826,23165,83991
2021,4,4,60909,23222,84131
2021,4,5,62688,23533,86221
2021,4,6,65756,24347,90103
2021,4,7,69379,24845,94224
2021,4,8,72339,25524,97863
2021,4,9,74498,26035,100533
2021,4,10,75334,26146,101480
2021,4,11,79484,26370,105854
2021,4,12,86340,27601,113941
2021,4,13,92503,28351,120854
2021,4,14,98959,29173,128132
2021,4,15,102972,30077,133049
2021,4,16,107194,30445,137639
2021,4,17,108524,30527,139051
2021,4,18,109570,30536,140106
2021,4,19,117084,31597,148681
2021,4,20,122615,32580,155195
2021,4,21,128949,33469,162418
2021,4,22,134903,34316,169219
2021,4,23,136697,34908,171605
2021,4,24,137230,35047,172277
2021,4,25,137580,35067,172647
2021,4,26,141444,36752,178196
2021,4,27,145553,37650,183203
2021,4,28,150926,38839,189765
2021,4,29,155612,39817,195429
2021,4,30,158599,40215,198814
2021,5,1,159659,40327,199986
2021,5,2,159923,40345,200268
2021,5,3,163471,41698,205169
2021,5,4,165818,43798,209616
2021,5,5,168445,44667,213112
2021,5,6,170091,45612,215703
