year,month,day,dose1,dose2,total_dose
2021,3,1,414032,66379,480411
2021,3,2,450651,71403,522054
2021,3,3,510361,78030,588391
2021,3,4,585353,84064,669417
2021,3,5,670563,91062,761625
2021,3,6,749180,97917,847097
2021,3,7,749180,97917,847097
2021,3,8,852767,104581,957348
2021,3,9,925927,111897,1037824
2021,3,10,1005619,119105,1124724
2021,3,11,1078862,126323,1205185
2021,3,12,1162732,135519,1298251
2021,3,13,1240261,143923,1384184
2021,3,14,1240261,143923,1384184
2021,3,15,1298327,148328,1446655
2021,3,16,1443532,163399,1606931
2021,3,17,1544770,173543,1718313
2021,3,18,1655864,184205,1840069
2021,3,19,1768349,196301,1964650
2021,3,20,1878339,207782,2086121
2021,3,21,1878339,207782,2086121
2021,3,22,2019260,219495,2238755
2021,3,23,2115424,228488,2343912
2021,3,24,2203535,234718,2438253
2021,3,25,2297100,240102,2537202
2021,3,26,2398870,246944,2645814
2021,3,27,2498283,253345,2751628
2021,3,28,2498283,253345,2751628
2021,3,29,2611426,260087,2871513
2021,3,30,2684001,268310,2952311
2021,3,31,2757835,273796,3031631
2021,4,1,2835444,279179,3114623
2021,4,2,2829190,272288,3101478
2021,4,3,2871776,279902,3151678
2021,4,4,2901208,285389,3186597
2021,4,5,2907580,298198,3205778
2021,4,6,2935315,304106,3239421
2021,4,7,2976866,315243,3292109
2021,4,8,3062266,339932,3402198
2021,4,9,3168084,365785,3533869
2021,4,10,3275326,391223,3666549
2021,4,11,3316627,398666,3715293
2021,4,12,3450649,431129,3881778
2021,4,13,3567442,453618,4021060
2021,4,14,3641255,469197,4110452
2021,4,15,3808634,515120,4323754
2021,4,16,3969605,562878,4532483
2021,4,17,4064944,605837,4670781
2021,4,18,4091849,620052,4711901
2021,4,19,4147880,666782,4814662
2021,4,20,4187801,704687,4892488
2021,4,21,4223499,742450,4965949
2021,4,22,4269535,807443,5076978
2021,4,23,4323789,883047,5206836
2021,4,24,4377101,951710,5328811
2021,4,25,4388488,962896,5351384
2021,4,26,4440851,1043782,5484633
2021,4,27,4496115,1129976,5626091
2021,4,28,4544687,1196900,5741587
2021,4,29,4590062,1255826,5845888
2021,4,30,4635447,1312353,5947800
2021,5,1,4683293,1362335,6045628
2021,5,2,4679186,1367098,6046284
2021,5,3,4705715,1417446,6123161
2021,5,4,4730022,1458823,6188845
2021,5,5,4753074,1496168,6249242
2021,5,6,4783045,1553407,6336452
