year,month,day,positive,death,recovered
2020,1,30,0,0,0
2020,1,31,0,0,0
2020,2,1,0,0,0
2020,2,2,0,0,0
2020,2,3,0,0,0
2020,2,4,0,0,0
2020,2,5,0,0,0
2020,2,6,0,0,0
2020,2,7,0,0,0
2020,2,8,0,0,0
2020,2,9,0,0,0
2020,2,10,0,0,0
2020,2,11,0,0,0
2020,2,12,0,0,0
2020,2,13,0,0,0
2020,2,14,0,0,0
2020,2,15,0,0,0
2020,2,16,0,0,0
2020,2,17,0,0,0
2020,2,18,0,0,0
2020,2,19,0,0,0
2020,2,20,0,0,0
2020,2,21,0,0,0
2020,2,22,0,0,0
2020,2,23,0,0,0
2020,2,24,0,0,0
2020,2,25,0,0,0
2020,2,26,0,0,0
2020,2,27,0,0,0
2020,2,28,0,0,0
2020,2,29,0,0,0
2020,3,1,0,0,0
2020,3,2,0,0,0
2020,3,3,0,0,0
2020,3,4,0,0,0
2020,3,5,0,0,0
2020,3,6,0,0,0
2020,3,7,0,0,0
2020,3,8,0,0,0
2020,3,9,0,0,0
2020,3,10,14,0,0
2020,3,11,14,0,0
2020,3,12,14,0,0
2020,3,13,14,0,0
2020,3,14,14,0,0
2020,3,15,14,0,0
2020,3,16,14,0,0
2020,3,17,15,0,0
2020,3,18,17,0,0
2020,3,19,17,0,0
2020,3,20,17,0,0
2020,3,21,17,0,0
2020,3,22,21,0,0
2020,3,23,26,0,11
2020,3,24,28,0,11
2020,3,25,28,0,11
2020,3,26,30,0,11
2020,3,27,30,0,11
2020,3,28,33,0,12
2020,3,29,33,0,17
2020,3,30,36,0,18
2020,3,31,40,0,21
2020,4,1,43,0,21
2020,4,2,43,0,21
2020,4,3,49,0,24
2020,4,4,49,0,24
2020,4,5,59,1,25
2020,4,6,84,1,25
2020,4,7,90,1,25
2020,4,8,147,3,28
2020,4,9,169,3,29
2020,4,10,169,3,29
2020,4,11,177,3,29
2020,4,12,185,3,29
2020,4,13,185,3,29
2020,4,14,199,3,34
2020,4,15,199,3,34
2020,4,16,205,3,43
2020,4,17,205,3,43
2020,4,18,225,3,43
2020,4,19,233,3,87
2020,4,20,233,3,87
2020,4,21,254,3,127
2020,4,22,254,3,127
2020,4,23,262,3,140
2020,4,24,272,3,156
2020,4,25,272,3,156
2020,4,26,289,3,176
2020,4,27,289,3,176
2020,4,28,296,3,183
2020,4,29,310,3,209
2020,4,30,310,3,209
2020,5,1,313,3,209
2020,5,2,360,4,227
2020,5,3,394,4,227
2020,5,4,442,5,245
2020,5,5,517,6,254
2020,5,6,548,6,256
2020,5,7,594,7,260
2020,5,8,625,7,260
2020,5,9,647,8,279
2020,5,10,675,9,290
2020,5,11,703,10,300
2020,5,12,730,11,337
2020,5,13,780,11,342
2020,5,14,793,11,418
2020,5,15,818,11,439
2020,5,16,818,11,439
2020,5,17,887,13,514
2020,5,18,910,14,562
2020,5,19,928,14,598
2020,5,20,964,14,627
2020,5,21,993,14,648
2020,5,22,1031,15,681
2020,5,23,1067,16,706
2020,5,24,1131,16,750
2020,5,25,1184,16,765
2020,5,26,1184,16,765
2020,5,27,1305,17,824
2020,5,28,1381,18,838
2020,5,29,1504,19,881
2020,5,30,1721,19,940
2020,5,31,1923,20,971
2020,6,1,2091,20,1048
2020,6,2,2356,21,1055
2020,6,3,2652,23,1069
2020,6,4,2954,23,1089
2020,6,5,3281,24,2134
2020,6,6,3597,24,2134
2020,6,7,3952,24,2134
2020,6,8,4448,28,2134
2020,6,9,4854,39,2134
2020,6,10,5209,45,2134
2020,6,11,5579,52,2188
2020,6,12,5968,64,2260
2020,6,13,6334,70,2475
2020,6,14,6749,78,2803
2020,6,15,7208,88,3003
2020,6,16,7722,100,3565
2020,6,17,8272,118,3748
2020,6,18,8832,130,3952
2020,6,19,9218,134,4556
2020,6,20,9743,144,4889
2020,6,21,10223,149,5128
2020,6,22,10635,160,5557
2020,6,23,11025,169,5916
2020,6,24,11520,178,6498
2020,6,25,12010,188,6925
2020,6,26,12463,198,7380
2020,6,27,12884,211,8016
2020,6,28,13427,218,8472
2020,6,29,13829,223,8917
2020,6,30,14210,232,9502
2020,7,1,14548,236,9972
2020,7,2,14941,240,10499
2020,7,3,15509,251,11019
2020,7,4,16003,255,11691
2020,7,5,16548,260,12257
2020,7,6,17005,265,12944
2020,7,7,17504,276,13335
2020,7,8,17999,279,13645
2020,7,9,18690,282,14106
2020,7,10,19369,287,14510
2020,7,11,19934,290,14904
2020,7,12,20582,297,15394
2020,7,13,21240,301,15983
2020,7,14,21894,308,16602
2020,7,15,22628,312,17090
2020,7,16,23306,319,17667
2020,7,17,24002,322,18185
2020,7,18,24797,327,18718
2020,7,19,25547,344,19318
2020,7,20,26164,349,19793
2020,7,21,26858,355,20226
2020,7,22,27462,364,20952
2020,7,23,28186,372,21697
2020,7,24,28975,378,22249
2020,7,25,29755,382,22953
2020,7,26,30538,389,23654
2020,7,27,31332,392,24384
2020,7,28,32127,397,25046
2020,7,29,32876,406,25758
2020,7,30,33631,413,26420
2020,7,31,34254,417,27340
2020,8,1,34965,421,28227
2020,8,2,35758,428,29080
2020,8,3,36519,433,29690
2020,8,4,37173,440,30470
2020,8,5,37796,448,31226
2020,8,6,38548,455,31960
2020,8,7,39303,458,32640
2020,8,8,40054,467,33444
2020,8,9,40843,474,34031
2020,8,10,41635,483,34781
2020,8,11,42429,489,35492
2020,8,12,43227,500,36082
2020,8,13,44024,503,36694
2020,8,14,44817,511,37486
2020,8,15,45614,518,38348
2020,8,16,46410,528,38939
2020,8,17,47153,538,39601
2020,8,18,48040,550,40610
2020,8,19,48936,557,41298
2020,8,20,49930,567,42056
2020,8,21,50926,578,42793
2020,8,22,52129,585,43413
2020,8,23,53290,597,44013
2020,8,24,54386,603,44822
2020,8,25,55460,613,45405
2020,8,26,56608,623,46496
2020,8,27,58005,634,47613
2020,8,28,59298,646,48690
2020,8,29,60596,661,49710
2020,8,30,61987,670,50711
2020,8,31,63282,682,51620
2020,9,1,64732,689,52672
2020,9,2,66426,706,53835
2020,9,3,68218,721,54875
2020,9,4,70099,740,55889
2020,9,5,71983,759,57171
2020,9,6,74272,781,58580
2020,9,7,76549,806,60051
2020,9,8,78773,829,61611
2020,9,9,81059,854,63315
2020,9,10,83353,882,65143
2020,9,11,85944,907,66705
2020,9,12,88332,932,68525
2020,9,13,91115,956,70713
2020,9,14,93641,975,72587
2020,9,15,96129,1000,74712
2020,9,16,98622,1026,77166
2020,9,17,101316,1045,78937
2020,9,18,103773,1069,81690
2020,9,19,106261,1092,83878
2020,9,20,108952,1120,86150
2020,9,21,111257,1149,88697
2020,9,22,113075,1177,90884
2020,9,23,114870,1206,93776
2020,9,24,116856,1233,96347
2020,9,25,118554,1255,98410
2020,9,26,120578,1273,101273
2020,9,27,122267,1291,103827
2020,9,28,123782,1307,105990
2020,9,29,125412,1331,108411
2020,9,30,126974,1356,110814
2020,10,1,128599,1382,112877
2020,10,2,129912,1402,115038
2020,10,3,131388,1425,116716
2020,10,4,132576,1450,118258
2020,10,5,133878,1470,120341
2020,10,6,134909,1491,121596
2020,10,7,136115,1509,123286
2020,10,8,137398,1528,124841
2020,10,9,138682,1548,126267
2020,10,10,139932,1562,127540
2020,10,11,141090,1572,128841
2020,10,12,142155,1579,130003
2020,10,13,143221,1592,131228
2020,10,14,144302,1601,132382
2020,10,15,145507,1614,133706
2020,10,16,146706,1623,134719
2020,10,17,147933,1634,135858
2020,10,18,149081,1640,137176
2020,10,19,150033,1640,138351
2020,10,20,151234,1648,139511
2020,10,21,152174,1660,140436
2020,10,22,153367,1674,141506
2020,10,23,154495,1688,142798
2020,10,24,155765,1705,143978
2020,10,25,157064,1720,145196
2020,10,26,158304,1727,146282
2020,10,27,159457,1737,147566
2020,10,28,160705,1750,148503
2020,10,29,162223,1758,149451
2020,10,30,163817,1766,150660
2020,10,31,165467,1777,151839
2020,11,1,167210,1789,153230
2020,11,2,168880,1795,154451
2020,11,3,170446,1810,155717
2020,11,4,172130,1817,156975
2020,11,5,174082,1836,158136
2020,11,6,176146,1859,159643
2020,11,7,178413,1880,161176
2020,11,8,180424,1897,162814
2020,11,9,182804,1912,164444
2020,11,10,185231,1919,166595
2020,11,11,187777,1935,168421
2020,11,12,190323,1960,170250
2020,11,13,193111,1979,172265
2020,11,14,195799,2006,174380
2020,11,15,197917,2011,176368
2020,11,16,199874,2019,178298
2020,11,17,202027,2038,180647
2020,11,18,204477,2063,183261
2020,11,19,207039,2093,185403
2020,11,20,209251,2113,187559
2020,11,21,212355,2138,190067
2020,11,22,215021,2163,192533
2020,11,23,217300,2188,194768
2020,11,24,219963,2216,197335
2020,11,25,222292,2249,199278
2020,11,26,224489,2291,201250
2020,11,27,226611,2316,203517
2020,11,28,228746,2345,206001
2020,11,29,230713,2375,208422
2020,11,30,232522,2401,211216
2020,12,1,234126,2428,213336
2020,12,2,235997,2456,215797
2020,12,3,237604,2488,218443
2020,12,4,239239,2520,221203
2020,12,5,240841,2539,223973
2020,12,6,242398,2564,226524
2020,12,7,243896,2588,228411
2020,12,8,245288,2611,230551
2020,12,9,246679,2624,232108
2020,12,10,248079,2650,233696
2020,12,11,249329,2676,235197
2020,12,12,250394,2699,237009
2020,12,13,251402,2710,238374
2020,12,14,252392,2717,239800
2020,12,15,253385,2733,241544
2020,12,16,254207,2751,243224
2020,12,17,255014,2765,244676
2020,12,18,255728,2782,245933
2020,12,19,256477,2803,247097
2020,12,20,257067,2816,248172
2020,12,21,257644,2821,248935
2020,12,22,258197,2832,249840
2020,12,23,258731,2842,250502
2020,12,24,259226,2847,251149
2020,12,25,259745,2854,251908
2020,12,26,260153,2858,252545
2020,12,27,260545,2865,253145
2020,12,28,260907,2874,253765
2020,12,29,261258,2882,254336
2020,12,30,261672,2892,254880
2020,12,31,262054,2899,255356
2021,1,1,262325,2905,255853
2021,1,2,262611,2911,256386
2021,1,3,262850,2915,256811
2021,1,4,263068,2917,257261
2021,1,5,263312,2923,257652
2021,1,6,263571,2927,257952
2021,1,7,263887,2934,258281
2021,1,8,264161,2940,258658
2021,1,9,264442,2943,258998
2021,1,10,264721,2949,259209
2021,1,11,264955,2950,259495
2021,1,12,265199,2956,259696
2021,1,13,265391,2964,259986
2021,1,14,265616,2966,260236
2021,1,15,265803,2972,260565
2021,1,16,265964,2979,260801
2021,1,17,266131,2983,261019
2021,1,18,266309,2985,261230
2021,1,19,266428,2989,261510
2021,1,20,266581,2993,261751
2021,1,21,266686,2997,261955
2021,1,22,266819,3000,262140
2021,1,23,266939,3005,262349
2021,1,24,267075,3009,262507
2021,1,25,267203,3010,262682
2021,1,26,267321,3014,262929
2021,1,27,267417,3014,263119
2021,1,28,267504,3014,263236
2021,1,29,267601,3014,263347
2021,1,30,267708,3015,263501
2021,1,31,267805,3017,263654
2021,2,1,267897,3018,263764
2021,2,2,267989,3022,263886
2021,2,3,268067,3023,263989
2021,2,4,268136,3024,264093
2021,2,5,268209,3026,264221
2021,2,6,268293,3027,264317
2021,2,7,268364,3027,264429
2021,2,8,268431,3029,264519
2021,2,9,268507,3029,264608
2021,2,10,268600,3033,264713
2021,2,11,268677,3033,264820
2021,2,12,268783,3034,264901
2021,2,13,268887,3035,265015
2021,2,14,268969,3039,265085
2021,2,15,269046,3039,265155
2021,2,16,269154,3039,265212
2021,2,17,269240,3040,265381
2021,2,18,269322,3041,265455
2021,2,19,269405,3042,265549
2021,2,20,269498,3042,265643
2021,2,21,269609,3042,265751
2021,2,22,269730,3042,265827
2021,2,23,269836,3042,265920
2021,2,24,269967,3042,266017
2021,2,25,270097,3043,266099
2021,2,26,270263,3043,266166
2021,2,27,270411,3044,266264
2021,2,28,270610,3047,266358
2021,3,1,270784,3048,266461
2021,3,2,270950,3050,266612
2021,3,3,271125,3052,266725
2021,3,4,271365,3052,266843
2021,3,5,271659,3052,266992
2021,3,6,271892,3053,267116
2021,3,7,272215,3056,267261
2021,3,8,272520,3056,267433
2021,3,9,272751,3058,267610
2021,3,10,273087,3062,267762
2021,3,11,273446,3064,267942
2021,3,12,273888,3065,268144
2021,3,13,274273,3069,268397
2021,3,14,274697,3073,268672
2021,3,15,275137,3074,268968
2021,3,16,275557,3077,269268
2021,3,17,276080,3079,269517
2021,3,18,276635,3083,269812
2021,3,19,277268,3089,270222
2021,3,20,278140,3090,270670
2021,3,21,278961,3093,271038
2021,3,22,279828,3098,271375
2021,3,23,280693,3101,271894
2021,3,24,281588,3104,272335
2021,3,25,282569,3110,272714
2021,3,26,283622,3117,273276
2021,3,27,284944,3125,274024
2021,3,28,286327,3132,274785
2021,3,29,287719,3141,275458
2021,3,30,288714,3143,276259
2021,3,31,289694,3147,277110
2021,4,1,290800,3155,277919
2021,4,2,292409,3164,278883
2021,4,3,294270,3174,280074
2021,4,4,296229,3184,281258
2021,4,5,298133,3191,282368
2021,4,6,300173,3199,283869
2021,4,7,302272,3208,284984
2021,4,8,304638,3219,286182
2021,4,9,307510,3230,287151
2021,4,10,310504,3241,289121
2021,4,11,313441,3252,290736
2021,4,12,316881,3268,292632
2021,4,13,320699,3282,294930
2021,4,14,324544,3298,297039
2021,4,15,329942,3316,299205
2021,4,16,335800,3334,301948
2021,4,17,342077,3354,304906
2021,4,18,349794,3386,307850
2021,4,19,356971,3415,311339
2021,4,20,363813,3448,315002
2021,4,21,371624,3483,318369
2021,4,22,381247,3528,322297
2021,4,23,390989,3583,328809
2021,4,24,402843,3643,335143
2021,4,25,413334,3703,340247
2021,4,26,424319,3767,346304
2021,4,27,435823,3842,352515
2021,4,28,447754,3926,359699
2021,4,29,460198,4021,367317
2021,4,30,474145,4118,376852
2021,5,1,487978,4216,386200
2021,5,2,501566,4341,394709
2021,5,3,514888,4486,405132
2021,5,4,527773,4626,418425
2021,5,5,543559,4779,429950
2021,5,6,558975,4960,440590
