year,month,day,positive,death,recovered
2020,1,30,0,0,0
2020,1,31,0,0,0
2020,2,1,0,0,0
2020,2,2,0,0,0
2020,2,3,0,0,0
2020,2,4,0,0,0
2020,2,5,0,0,0
2020,2,6,0,0,0
2020,2,7,0,0,0
2020,2,8,0,0,0
2020,2,9,0,0,0
2020,2,10,0,0,0
2020,2,11,0,0,0
2020,2,12,0,0,0
2020,2,13,0,0,0
2020,2,14,0,0,0
2020,2,15,0,0,0
2020,2,16,0,0,0
2020,2,17,0,0,0
2020,2,18,0,0,0
2020,2,19,0,0,0
2020,2,20,0,0,0
2020,2,21,0,0,0
2020,2,22,0,0,0
2020,2,23,0,0,0
2020,2,24,0,0,0
2020,2,25,0,0,0
2020,2,26,0,0,0
2020,2,27,0,0,0
2020,2,28,0,0,0
2020,2,29,0,0,0
2020,3,1,0,0,0
2020,3,2,0,0,0
2020,3,3,0,0,0
2020,3,4,0,0,0
2020,3,5,0,0,0
2020,3,6,0,0,0
2020,3,7,0,0,0
2020,3,8,0,0,0
2020,3,9,0,0,0
2020,3,10,0,0,0
2020,3,11,0,0,0
2020,3,12,0,0,0
2020,3,13,0,0,0
2020,3,14,0,0,0
2020,3,15,0,0,0
2020,3,16,0,0,0
2020,3,17,0,0,0
2020,3,18,0,0,0
2020,3,19,0,0,0
2020,3,20,0,0,0
2020,3,21,2,0,0
2020,3,22,2,0,0
2020,3,23,3,1,0
2020,3,24,3,1,0
2020,3,25,3,1,0
2020,3,26,3,1,0
2020,3,27,3,1,0
2020,3,28,3,1,0
2020,3,29,3,1,0
2020,3,30,3,1,0
2020,3,31,3,1,0
2020,4,1,3,1,0
2020,4,2,3,1,1
2020,4,3,6,1,1
2020,4,4,6,1,1
2020,4,5,6,1,1
2020,4,6,13,1,2
2020,4,7,13,1,2
2020,4,8,18,1,2
2020,4,9,18,1,2
2020,4,10,28,1,6
2020,4,11,28,1,6
2020,4,12,32,1,6
2020,4,13,32,1,13
2020,4,14,32,1,13
2020,4,15,33,1,13
2020,4,16,35,1,16
2020,4,17,35,1,16
2020,4,18,38,1,16
2020,4,19,39,1,16
2020,4,20,39,1,16
2020,4,21,39,1,16
2020,4,22,39,1,16
2020,4,23,40,1,18
2020,4,24,40,1,18
2020,4,25,40,1,18
2020,4,26,40,1,22
2020,4,27,40,1,22
2020,4,28,40,1,22
2020,4,29,40,1,25
2020,4,30,40,1,25
2020,5,1,40,1,28
2020,5,2,40,1,30
2020,5,3,40,1,33
2020,5,4,40,1,34
2020,5,5,41,1,38
2020,5,6,42,2,38
2020,5,7,45,2,38
2020,5,8,46,2,38
2020,5,9,50,2,38
2020,5,10,50,2,38
2020,5,11,55,2,39
2020,5,12,59,2,39
2020,5,13,65,2,39
2020,5,14,66,2,39
2020,5,15,74,2,39
2020,5,16,76,3,39
2020,5,17,78,3,43
2020,5,18,80,3,44
2020,5,19,90,3,44
2020,5,20,92,3,47
2020,5,21,110,3,54
2020,5,22,152,3,59
2020,5,23,168,3,59
2020,5,24,185,3,61
2020,5,25,203,3,63
2020,5,26,223,5,67
2020,5,27,247,5,67
2020,5,28,273,5,70
2020,5,29,276,5,70
2020,5,30,295,5,87
2020,5,31,313,5,111
2020,6,1,331,5,120
2020,6,2,340,5,122
2020,6,3,345,5,140
2020,6,4,359,5,150
2020,6,5,383,5,179
2020,6,6,393,5,189
2020,6,7,400,5,194
2020,6,8,413,5,224
2020,6,9,421,5,227
2020,6,10,445,5,249
2020,6,11,451,6,254
2020,6,12,470,6,280
2020,6,13,486,6,297
2020,6,14,502,6,313
2020,6,15,518,7,337
2020,6,16,556,8,353
2020,6,17,560,8,372
2020,6,18,569,8,372
2020,6,19,595,8,382
2020,6,20,619,8,388
2020,6,21,656,8,413
2020,6,22,673,8,425
2020,6,23,727,8,437
2020,6,24,775,8,443
2020,6,25,806,8,466
2020,6,26,839,9,477
2020,6,27,864,9,502
2020,6,28,894,9,509
2020,6,29,916,9,529
2020,6,30,942,9,556
2020,7,1,953,10,580
2020,7,2,979,10,614
2020,7,3,1014,10,628
2020,7,4,1033,10,667
2020,7,5,1046,11,704
2020,7,6,1063,11,737
2020,7,7,1077,11,763
2020,7,8,1083,11,790
2020,7,9,1101,11,833
2020,7,10,1140,11,846
2020,7,11,1171,11,883
2020,7,12,1182,11,908
2020,7,13,1213,11,929
2020,7,14,1243,11,940
2020,7,15,1309,11,951
2020,7,16,1341,11,979
2020,7,17,1377,11,984
2020,7,18,1417,11,1024
2020,7,19,1457,11,1036
2020,7,20,1483,11,1059
2020,7,21,1631,11,1067
2020,7,22,1664,11,1077
2020,7,23,1725,11,1105
2020,7,24,1834,11,1136
2020,7,25,1954,11,1145
2020,7,26,2049,11,1173
2020,7,27,2176,12,1198
2020,7,28,2270,14,1216
2020,7,29,2330,14,1234
2020,7,30,2403,14,1332
2020,7,31,2506,14,1387
2020,8,1,2564,14,1459
2020,8,2,2634,14,1502
2020,8,3,2703,14,1559
2020,8,4,2818,14,1658
2020,8,5,2879,14,1710
2020,8,6,2916,14,1762
2020,8,7,3047,14,1865
2020,8,8,3150,14,1954
2020,8,9,3264,14,2081
2020,8,10,3371,15,2181
2020,8,11,3463,17,2205
2020,8,12,3497,18,2273
2020,8,13,3636,18,2362
2020,8,14,3816,19,2435
2020,8,15,3874,19,2551
2020,8,16,3993,19,2632
2020,8,17,4156,19,2720
2020,8,18,4174,19,2834
2020,8,19,4235,19,2923
2020,8,20,4411,19,2992
2020,8,21,4538,23,3085
2020,8,22,4728,25,3234
2020,8,23,4895,29,3341
2020,8,24,5001,29,3461
2020,8,25,5101,29,3584
2020,8,26,5154,30,3748
2020,8,27,5321,32,3810
2020,8,28,5501,33,4008
2020,8,29,5637,33,4149
2020,8,30,5781,34,4308
2020,8,31,5945,35,4450
2020,9,1,6116,38,4515
2020,9,2,6255,40,4688
2020,9,3,6416,43,4760
2020,9,4,6615,48,4859
2020,9,5,6830,50,4965
2020,9,6,7018,54,4986
2020,9,7,7415,55,5184
2020,9,8,7660,56,5370
2020,9,9,7831,60,5445
2020,9,10,8147,63,5597
2020,9,11,8466,66,5677
2020,9,12,8784,71,5839
2020,9,13,9229,73,5962
2020,9,14,9555,77,6114
2020,9,15,9923,82,6182
2020,9,16,10335,90,6444
2020,9,17,10795,91,6558
2020,9,18,11190,98,6946
2020,9,19,11622,111,7081
2020,9,20,11908,116,7484
2020,9,21,12129,120,7565
2020,9,22,12438,127,7853
2020,9,23,12769,134,8511
2020,9,24,13049,140,8959
2020,9,25,13386,150,9252
2020,9,26,13679,157,9546
2020,9,27,13996,164,9728
2020,9,28,14191,175,10359
2020,9,29,14457,180,10627
2020,9,30,14747,183,10991
2020,10,1,14976,186,11390
2020,10,2,15219,195,11608
2020,10,3,15454,202,11996
2020,10,4,15695,210,12193
2020,10,5,15851,217,12361
2020,10,6,16033,224,12653
2020,10,7,16283,229,12918
2020,10,8,16565,231,13338
2020,10,9,16778,238,13597
2020,10,10,16977,245,13876
2020,10,11,17244,248,14278
2020,10,12,17408,250,14471
2020,10,13,17578,251,14690
2020,10,14,17762,254,15001
2020,10,15,18008,255,15233
2020,10,16,18303,260,15389
2020,10,17,18522,262,15618
2020,10,18,18797,265,15852
2020,10,19,18967,268,16069
2020,10,20,19135,272,16270
2020,10,21,19357,274,16487
2020,10,22,19621,279,16706
2020,10,23,19844,284,16937
2020,10,24,20040,285,17135
2020,10,25,20213,290,17318
2020,10,26,20370,291,17590
2020,10,27,20586,293,17782
2020,10,28,20817,298,17998
2020,10,29,21149,300,18203
2020,10,30,21476,306,18402
2020,10,31,21798,312,18595
2020,11,1,22059,317,18862
2020,11,2,22264,326,18965
2020,11,3,22598,336,19304
2020,11,4,22932,344,19469
2020,11,5,23365,355,19579
2020,11,6,23809,361,19780
2020,11,7,24239,361,20033
2020,11,8,24812,371,20243
2020,11,9,25486,377,20393
2020,11,10,26197,384,20621
2020,11,11,26808,396,21047
2020,11,12,27418,405,21408
2020,11,13,28183,411,21607
2020,11,14,29008,423,21846
2020,11,15,29330,431,22183
2020,11,16,29713,442,22392
2020,11,17,30156,450,22931
2020,11,18,30740,462,23506
2020,11,19,31401,475,24025
2020,11,20,32197,488,24729
2020,11,21,32785,500,25455
2020,11,22,33700,518,26112
2020,11,23,34327,537,26756
2020,11,24,34781,560,27541
2020,11,25,35729,572,28007
2020,11,26,36566,585,28106
2020,11,27,37497,599,29020
2020,11,28,38327,612,29510
2020,11,29,38977,623,29780
2020,11,30,40003,635,30724
2020,12,1,40518,645,31584
2020,12,2,41227,666,32343
2020,12,3,41860,677,33370
2020,12,4,42697,695,33914
2020,12,5,43500,708,34492
2020,12,6,44405,721,35437
2020,12,7,44958,732,35957
2020,12,8,45697,739,37063
2020,12,9,46201,753,37871
2020,12,10,46930,765,38690
2020,12,11,47703,773,39065
2020,12,12,48354,793,39836
2020,12,13,48951,803,40573
2020,12,14,49375,811,41313
2020,12,15,49761,823,41990
2020,12,16,50196,836,42568
2020,12,17,50680,848,43614
2020,12,18,51143,858,44146
2020,12,19,51625,867,44784
2020,12,20,52010,870,45174
2020,12,21,52329,876,46257
2020,12,22,52623,885,46852
2020,12,23,52955,889,47275
2020,12,24,53392,894,47869
2020,12,25,53766,899,48186
2020,12,26,54058,902,48809
2020,12,27,54280,913,49076
2020,12,28,54438,919,49685
2020,12,29,54680,921,50079
2020,12,30,54894,925,50631
2020,12,31,55114,931,51387
2021,1,1,55277,934,51728
2021,1,2,55470,936,52140
2021,1,3,55619,938,52479
2021,1,4,55686,944,52912
2021,1,5,55808,946,53216
2021,1,6,55910,948,53523
2021,1,7,56015,952,53782
2021,1,8,56146,953,53973
2021,1,9,56282,955,54145
2021,1,10,56366,958,54320
2021,1,11,56452,959,54522
2021,1,12,56521,961,54686
2021,1,13,56596,961,54825
2021,1,14,56689,963,54896
2021,1,15,56751,963,54977
2021,1,16,56802,963,55072
2021,1,17,56873,964,55154
2021,1,18,56943,966,55280
2021,1,19,56978,967,55383
2021,1,20,57019,967,55468
2021,1,21,57082,967,55540
2021,1,22,57121,970,55595
2021,1,23,57162,970,55676
2021,1,24,57189,971,55749
2021,1,25,57210,973,55801
2021,1,26,57245,973,55864
2021,1,27,57257,973,55923
2021,1,28,57296,974,55991
2021,1,29,57356,974,56043
2021,1,30,57400,974,56083
2021,1,31,57494,976,56135
2021,2,1,57536,979,56167
2021,2,2,57561,979,56204
2021,2,3,57587,980,56242
2021,2,4,57646,981,56256
2021,2,5,57693,982,56272
2021,2,6,57764,982,56320
2021,2,7,57851,983,56371
2021,2,8,57896,984,56448
2021,2,9,57925,984,56483
2021,2,10,57993,987,56551
2021,2,11,58076,988,56600
2021,2,12,58112,989,56630
2021,2,13,58142,990,56647
2021,2,14,58201,992,56685
2021,2,15,58222,994,56817
2021,2,16,58243,994,56851
2021,2,17,58262,994,56898
2021,2,18,58296,994,56948
2021,2,19,58312,994,57017
2021,2,20,58344,994,57052
2021,2,21,58366,994,57120
2021,2,22,58385,995,57156
2021,2,23,58403,995,57181
2021,2,24,58423,995,57210
2021,2,25,58457,995,57233
2021,2,26,58499,995,57260
2021,2,27,58543,995,57287
2021,2,28,58598,995,57311
2021,3,1,58645,995,57332
2021,3,2,58777,996,57347
2021,3,3,58800,996,57367
2021,3,4,58877,996,57386
2021,3,5,58942,996,57406
2021,3,6,59014,997,57428
2021,3,7,59059,997,57473
2021,3,8,59118,997,57507
2021,3,9,59197,1000,57580
2021,3,10,59239,1002,57616
2021,3,11,59347,1003,57745
2021,3,12,59439,1003,57774
2021,3,13,59527,1003,57818
2021,3,14,59597,1004,57848
2021,3,15,59675,1006,57909
2021,3,16,59750,1010,57983
2021,3,17,59869,1011,58038
2021,3,18,60036,1011,58090
2021,3,19,60207,1013,58151
2021,3,20,60389,1016,58249
2021,3,21,60537,1017,58321
2021,3,22,60678,1018,58404
2021,3,23,60878,1021,58472
2021,3,24,61035,1025,58555
2021,3,25,61301,1027,58620
2021,3,26,61616,1029,58684
2021,3,27,61967,1030,58813
2021,3,28,62383,1033,58989
2021,3,29,62660,1036,59146
2021,3,30,62981,1039,59308
2021,3,31,63320,1045,59445
2021,4,1,63605,1048,59584
2021,4,2,64014,1052,59741
2021,4,3,64420,1056,60026
2021,4,4,64838,1060,60337
2021,4,5,65242,1070,60595
2021,4,6,65809,1076,60905
2021,4,7,66237,1081,61416
2021,4,8,66890,1090,61642
2021,4,9,67511,1096,61902
2021,4,10,68173,1103,62411
2021,4,11,69114,1115,62776
2021,4,12,69686,1115,63202
2021,4,13,70775,1124,63582
2021,4,14,71394,1135,63990
2021,4,15,72319,1148,64242
2021,4,16,73353,1159,64832
2021,4,17,74195,1168,65316
2021,4,18,75587,1180,65963
2021,4,19,76375,1190,66489
2021,4,20,78070,1203,67084
2021,4,21,79410,1219,68164
2021,4,22,81102,1236,69073
2021,4,23,82876,1254,69763
2021,4,24,84065,1280,70539
2021,4,25,86138,1304,71423
2021,4,26,87501,1336,72588
2021,4,27,89193,1363,73504
2021,4,28,91350,1387,74812
2021,4,29,93889,1420,76371
2021,4,30,96929,1460,77634
2021,5,1,99287,1497,79365
2021,5,2,102038,1525,80585
2021,5,3,104491,1569,82195
2021,5,4,107121,1612,83721
2021,5,5,110945,1660,85713
2021,5,6,114787,1692,87193
