year,month,day,positive,death,recovered
2020,1,30,0,0,0
2020,1,31,0,0,0
2020,2,1,0,0,0
2020,2,2,0,0,0
2020,2,3,0,0,0
2020,2,4,0,0,0
2020,2,5,0,0,0
2020,2,6,0,0,0
2020,2,7,0,0,0
2020,2,8,0,0,0
2020,2,9,0,0,0
2020,2,10,0,0,0
2020,2,11,0,0,0
2020,2,12,0,0,0
2020,2,13,0,0,0
2020,2,14,0,0,0
2020,2,15,0,0,0
2020,2,16,0,0,0
2020,2,17,0,0,0
2020,2,18,0,0,0
2020,2,19,0,0,0
2020,2,20,0,0,0
2020,2,21,0,0,0
2020,2,22,0,0,0
2020,2,23,0,0,0
2020,2,24,0,0,0
2020,2,25,0,0,0
2020,2,26,0,0,0
2020,2,27,0,0,0
2020,2,28,0,0,0
2020,2,29,0,0,0
2020,3,1,0,0,0
2020,3,2,0,0,0
2020,3,3,0,0,0
2020,3,4,0,0,0
2020,3,5,0,0,0
2020,3,6,0,0,0
2020,3,7,0,0,0
2020,3,8,0,0,0
2020,3,9,0,0,0
2020,3,10,2,0,0
2020,3,11,2,0,0
2020,3,12,11,0,0
2020,3,13,11,0,0
2020,3,14,14,0,0
2020,3,15,32,0,0
2020,3,16,32,0,0
2020,3,17,39,1,0
2020,3,18,42,1,0
2020,3,19,47,1,0
2020,3,20,52,1,0
2020,3,21,63,1,0
2020,3,22,67,2,0
2020,3,23,74,2,0
2020,3,24,89,2,0
2020,3,25,128,3,1
2020,3,26,124,3,1
2020,3,27,130,4,15
2020,3,28,180,5,25
2020,3,29,186,6,25
2020,3,30,198,8,25
2020,3,31,216,9,39
2020,4,1,302,9,39
2020,4,2,335,13,42
2020,4,3,335,16,42
2020,4,4,490,24,42
2020,4,5,490,24,42
2020,4,6,748,45,56
2020,4,7,868,48,56
2020,4,8,1018,64,79
2020,4,9,1135,72,117
2020,4,10,1364,97,125
2020,4,11,1574,110,188
2020,4,12,1761,127,208
2020,4,13,1985,149,217
2020,4,14,2337,160,229
2020,4,15,2687,178,259
2020,4,16,2919,187,295
2020,4,17,3205,194,300
2020,4,18,3323,201,331
2020,4,19,3651,211,365
2020,4,20,4203,223,507
2020,4,21,4669,232,572
2020,4,22,5221,251,722
2020,4,23,5652,269,789
2020,4,24,6430,283,840
2020,4,25,6817,301,957
2020,4,26,7628,323,1076
2020,4,27,8068,342,1188
2020,4,28,8590,369,1282
2020,4,29,9318,400,1388
2020,4,30,9915,432,1593
2020,5,1,10498,459,1773
2020,5,2,11506,485,1879
2020,5,3,12296,521,2000
2020,5,4,12974,548,2115
2020,5,5,14541,583,2465
2020,5,6,15525,617,2819
2020,5,7,16758,651,3094
2020,5,8,17974,694,3301
2020,5,9,19063,731,3470
2020,5,10,20228,779,3800
2020,5,11,22171,832,4199
2020,5,12,23401,868,4786
2020,5,13,24427,921,5125
2020,5,14,25922,975,5547
2020,5,15,27524,1019,6059
2020,5,16,29100,1068,6564
2020,5,17,30706,1135,7088
2020,5,18,33053,1198,7688
2020,5,19,35058,1249,8437
2020,5,20,37136,1325,9639
2020,5,21,39297,1390,10318
2020,5,22,41642,1454,11726
2020,5,23,44582,1517,12583
2020,5,24,47190,1577,13404
2020,5,25,50231,1635,14600
2020,5,26,52667,1695,15786
2020,5,27,54758,1792,16954
2020,5,28,56948,1897,17918
2020,5,29,59546,1982,18616
2020,5,30,62228,2098,26997
2020,5,31,65168,2197,28081
2020,6,1,67655,2286,29329
2020,6,2,70013,2362,30108
2020,6,3,72300,2465,31333
2020,6,4,74860,2587,32329
2020,6,5,77793,2710,33681
2020,6,6,80229,2849,35156
2020,6,7,82968,2969,37390
2020,6,8,85975,3060,39314
2020,6,9,88528,3169,40975
2020,6,10,90787,3289,42638
2020,6,11,94041,3438,44517
2020,6,12,97648,3590,46078
2020,6,13,101141,3717,47796
2020,6,14,104568,3830,49346
2020,6,15,107958,3950,50978
2020,6,16,110744,4128,56049
2020,6,17,113445,5537,57851
2020,6,18,116752,5651,59166
2020,6,19,120504,5751,60838
2020,6,20,124331,5893,62773
2020,6,21,128205,5984,64153
2020,6,22,132075,6170,65744
2020,6,23,135796,6283,67706
2020,6,24,139010,6531,69631
2020,6,25,142900,6739,73792
2020,6,26,147741,6931,77453
2020,6,27,152765,7106,79815
2020,6,28,159133,7273,84245
2020,6,29,164626,7429,86575
2020,6,30,169883,7610,88960
2020,7,1,174761,7855,90911
2020,7,2,180298,8053,93154
2020,7,3,186626,8178,101172
2020,7,4,192990,8376,104687
2020,7,5,200064,8671,108082
2020,7,6,206619,8822,111740
2020,7,7,211987,9026,115262
2020,7,8,217121,9250,118558
2020,7,9,223724,9448,123192
2020,7,10,230599,9667,127259
2020,7,11,238461,9893,132625
2020,7,12,246600,10116,136985
2020,7,13,254427,10289,140325
2020,7,14,260924,10482,144507
2020,7,15,267665,10695,149007
2020,7,16,275640,10928,152613
2020,7,17,284281,11194,158140
2020,7,18,292589,11452,160357
2020,7,19,300937,11596,165663
2020,7,20,310455,11854,169569
2020,7,21,318695,12030,175029
2020,7,22,327031,12276,182217
2020,7,23,337607,12556,187769
2020,7,24,347502,12854,194253
2020,7,25,357117,13132,199967
2020,7,26,366368,13389,207194
2020,7,27,375799,13656,213238
2020,7,28,383723,13883,221944
2020,7,29,391440,14165,232277
2020,7,30,400651,14463,239755
2020,7,31,411798,14729,248615
2020,8,1,422118,14994,256158
2020,8,2,431719,15316,266883
2020,8,3,441228,15576,276809
2020,8,4,450196,15842,287030
2020,8,5,457956,16142,299356
2020,8,6,468265,16476,305521
2020,8,7,479779,16792,316375
2020,8,8,490262,17092,327281
2020,8,9,503084,17367,338362
2020,8,10,515332,17757,351710
2020,8,11,524513,18050,358421
2020,8,12,535601,18306,368435
2020,8,13,548313,18650,381843
2020,8,14,560126,19063,390958
2020,8,15,572734,19427,401442
2020,8,16,584754,19749,408286
2020,8,17,595865,20037,417123
2020,8,18,604358,20265,428514
2020,8,19,615477,20687,437870
2020,8,20,628642,21033,446881
2020,8,21,643289,21359,459124
2020,8,22,657450,21698,470873
2020,8,23,671942,21995,480114
2020,8,24,682383,22253,488271
2020,8,25,693398,22465,502490
2020,8,26,703823,22794,514790
2020,8,27,718711,23089,522427
2020,8,28,733568,23444,531563
2020,8,29,747995,23775,543170
2020,8,30,764281,24103,554711
2020,8,31,780689,24399,562401
2020,9,1,792541,24583,573559
2020,9,2,808306,24903,584537
2020,9,3,825739,25195,598496
2020,9,4,843844,25586,612484
2020,9,5,863062,25964,625773
2020,9,6,883862,26276,636574
2020,9,7,907212,26604,644400
2020,9,8,923641,27027,659322
2020,9,9,943772,27407,672556
2020,9,10,967349,27787,686462
2020,9,11,990795,28282,700715
2020,9,12,1015681,28724,715023
2020,9,13,1037765,29115,728512
2020,9,14,1060308,29531,740061
2020,9,15,1077374,29894,755850
2020,9,16,1097856,30409,775273
2020,9,17,1121221,30883,792832
2020,9,18,1145840,31351,812354
2020,9,19,1167496,31791,834432
2020,9,20,1188015,32216,857933
2020,9,21,1208642,32671,884341
2020,9,22,1224380,33015,916348
2020,9,23,1242770,33407,936554
2020,9,24,1263799,33886,956030
2020,9,25,1282963,34345,973214
2020,9,26,1300757,34761,992806
2020,9,27,1321176,35191,1016450
2020,9,28,1339232,35571,1030015
2020,9,29,1351153,35751,1049947
2020,9,30,1366129,36181,1069159
2020,10,1,1384446,36662,1088322
2020,10,2,1400922,37056,1104426
2020,10,3,1416513,37480,1117720
2020,10,4,1430861,37758,1134555
2020,10,5,1443409,38084,1149603
2020,10,6,1453653,38347,1162585
2020,10,7,1465911,38717,1179726
2020,10,8,1480489,39072,1196441
2020,10,9,1493884,39430,1212016
2020,10,10,1506018,39732,1229339
2020,10,11,1517434,40040,1255779
2020,10,12,1528226,40349,1266240
2020,10,13,1535315,40514,1281896
2020,10,14,1543837,40701,1297252
2020,10,15,1554389,40859,1316769
2020,10,16,1564615,41196,1330483
2020,10,17,1576062,41502,1344368
2020,10,18,1586321,41965,1358606
2020,10,19,1595381,42115,1369810
2020,10,20,1601365,42240,1384879
2020,10,21,1609516,42453,1392308
2020,10,22,1617658,42633,1415679
2020,10,23,1625197,42831,1431856
2020,10,24,1632544,43015,1445103
2020,10,25,1638961,43152,1455107
2020,10,26,1645020,43264,1460755
2020,10,27,1648665,43348,1470660
2020,10,28,1654028,43463,1478496
2020,10,29,1660766,43554,1486926
2020,10,30,1666668,43710,1494809
2020,10,31,1672858,43837,1503050
2020,11,1,1678406,43911,1510353
2020,11,2,1683775,44024,1514079
2020,11,3,1687784,44128,1524304
2020,11,4,1692693,44248,1531277
2020,11,5,1698198,44548,1540005
2020,11,6,1703444,44804,1551282
2020,11,7,1710314,44965,1562342
2020,11,8,1714273,45115,1569090
2020,11,9,1719858,45240,1577322
2020,11,10,1723135,45325,1581373
2020,11,11,1726926,45435,1588091
2020,11,12,1731833,45560,1597255
2020,11,13,1736329,45682,1605064
2020,11,14,1740461,45809,1609607
2020,11,15,1744698,45914,1612314
2020,11,16,1747242,45974,1615379
2020,11,17,1749777,46034,1618380
2020,11,18,1752509,46102,1623503
2020,11,19,1757520,46202,1630111
2020,11,20,1763055,46356,1635971
2020,11,21,1768695,46511,1642916
2020,11,22,1774455,46573,1647004
2020,11,23,1780208,46623,1651064
2020,11,24,1784361,46653,1654793
2020,11,25,1789800,46683,1658879
2020,11,26,1795959,46748,1663723
2020,11,27,1802365,46813,1668538
2020,11,28,1808550,46898,1672627
2020,11,29,1814515,46986,1676564
2020,11,30,1820059,47071,1680926
2020,12,1,1823896,47151,1685122
2020,12,2,1828826,47246,1691412
2020,12,3,1832176,47357,1695208
2020,12,4,1837358,47472,1703274
2020,12,5,1842587,47599,1710050
2020,12,6,1847509,47694,1715884
2020,12,7,1852266,47734,1723370
2020,12,8,1855341,47774,1730715
2020,12,9,1859367,47827,1737080
2020,12,10,1864348,47902,1742131
2020,12,11,1868172,47972,1747199
2020,12,12,1872440,48059,1749973
2020,12,13,1876699,48139,1753922
2020,12,14,1880416,48209,1757005
2020,12,15,1883365,48269,1761615
2020,12,16,1886807,48339,1766010
2020,12,17,1886807,48434,1769897
2020,12,18,1886807,48499,1774255
2020,12,19,1888767,48574,1778722
2020,12,20,1892707,48648,1781841
2020,12,21,1896518,48746,1783905
2020,12,22,1899352,48801,1789958
2020,12,23,1902458,48876,1794080
2020,12,24,1906371,48969,1801700
2020,12,25,1909951,49058,1804871
2020,12,26,1913382,49129,1806298
2020,12,27,1916236,49189,1807824
2020,12,28,1919550,49255,1809948
2020,12,29,1922048,49305,1814449
2020,12,30,1925066,49373,1820021
2020,12,31,1928603,49463,1824934
2021,1,1,1932112,49521,1828546
2021,1,2,1935636,49580,1832825
2021,1,3,1938854,49631,1834935
2021,1,4,1942136,49666,1836999
2021,1,5,1947011,49695,1847361
2021,1,6,1950171,49759,1850189
2021,1,7,1954553,49825,1852759
2021,1,8,1958282,49897,1856109
2021,1,9,1961975,49970,1858999
2021,1,10,1965556,50027,1861400
2021,1,11,1969114,50061,1863702
2021,1,12,1971552,50101,1867988
2021,1,13,1974488,50151,1871270
2021,1,14,1978044,50221,1874279
2021,1,15,1981623,50291,1877588
2021,1,16,1984768,50336,1881088
2021,1,17,1987678,50388,1884127
2021,1,18,1990759,50438,1886469
2021,1,19,1992683,50473,1890323
2021,1,20,1994977,50523,1894839
2021,1,21,1997992,50582,1899428
2021,1,22,2000878,50634,1903408
2021,1,23,2003657,50684,1906827
2021,1,24,2006354,50740,1910521
2021,1,25,2009106,50785,1912264
2021,1,26,2010948,50815,1915344
2021,1,27,2013353,50862,1917450
2021,1,28,2015524,50894,1920006
2021,1,29,2018413,50944,1923187
2021,1,30,2021184,51000,1925800
2021,1,31,2023814,51042,1927335
2021,2,1,2026399,51082,1929005
2021,2,2,2028347,51109,1932294
2021,2,3,2030274,51139,1936305
2021,2,4,2033266,51169,1943335
2021,2,5,2036002,51215,1948674
2021,2,6,2038630,51255,1952187
2021,2,7,2041398,51280,1953926
2021,2,8,2044071,51310,1955548
2021,2,9,2046287,51325,1958971
2021,2,10,2048802,51360,1961525
2021,2,11,2052253,51390,1963946
2021,2,12,2052905,51415,1970053
2021,2,13,2056575,51451,1972475
2021,2,14,2060186,51489,1974248
2021,2,15,2064278,51529,1975603
2021,2,16,2067643,51552,1978708
2021,2,17,2071306,51591,1981408
2021,2,18,2076093,51631,1985261
2021,2,19,2081520,51669,1987804
2021,2,20,2087632,51713,1989963
2021,2,21,2093913,51753,1992530
2021,2,22,2100884,51788,1994947
2021,2,23,2106094,51806,1999982
2021,2,24,2112312,51857,2005851
2021,2,25,2121119,51937,2008623
2021,2,26,2129821,51993,2012367
2021,2,27,2138154,52041,2017303
2021,2,28,2146777,52092,2020951
2021,3,1,2155070,52154,2024704
2021,3,2,2161467,52184,2030458
2021,3,3,2169330,52238,2036790
2021,3,4,2179185,52280,2043349
2021,3,5,2188183,52340,2049484
2021,3,6,2198399,52393,2055951
2021,3,7,2208586,52440,2062031
2021,3,8,2219727,52478,2068044
2021,3,9,2228471,52500,2077112
2021,3,10,2238398,52556,2089294
2021,3,11,2252057,52610,2099207
2021,3,12,2266374,52667,2106400
2021,3,13,2282191,52723,2117744
2021,3,14,2297793,52811,2125211
2021,3,15,2314413,52861,2134072
2021,3,16,2329464,52909,2144743
2021,3,17,2347328,52996,2154253
2021,3,18,2370507,53080,2163391
2021,3,19,2396340,53138,2175565
2021,3,20,2422021,53208,2189965
2021,3,21,2449147,53300,2203553
2021,3,22,2479682,53399,2214867
2021,3,23,2504327,53457,2234330
2021,3,24,2533026,53589,2247495
2021,3,25,2564881,53684,2262593
2021,3,26,2600833,53795,2283037
2021,3,27,2637735,53907,2300056
2021,3,28,2673461,54073,2314579
2021,3,29,2713875,54181,2332453
2021,3,30,2745518,54283,2353307
2021,3,31,2773436,54422,2377127
2021,4,1,2812980,54649,2400727
2021,4,2,2856163,54898,2433368
2021,4,3,2904076,55379,2457494
2021,4,4,2953523,55656,2495315
2021,4,5,3010597,55878,2522823
2021,4,6,3057885,56033,2549075
2021,4,7,3113354,56330,2583331
2021,4,8,3173261,56652,2613627
2021,4,9,3229547,57028,2649757
2021,4,10,3288540,57329,2695148
2021,4,11,3343951,57638,2748153
2021,4,12,3407245,57987,2782161
2021,4,13,3458996,58245,2834473
2021,4,14,3519208,58526,2866097
2021,4,15,3578160,58804,2905721
2021,4,16,3639855,59153,2959056
2021,4,17,3703584,59551,3004391
2021,4,18,3770707,59970,3061174
2021,4,19,3839338,60473,3106828
2021,4,20,3898262,60824,3159240
2021,4,21,3960359,61343,3213464
2021,4,22,4027827,61911,3268449
2021,4,23,4094840,62479,3330747
2021,4,24,4161676,63252,3404792
2021,4,25,4228836,63928,3468610
2021,4,26,4295027,64760,3530060
2021,4,27,4343727,65284,3601796
2021,4,28,4410085,66179,3669548
2021,4,29,4473394,67214,3730729
2021,4,30,4539553,67985,3799266
2021,5,1,4602472,68813,3868976
2021,5,2,4665754,69615,3930302
2021,5,3,4722401,70284,3981658
2021,5,4,4771022,70851,4041158
2021,5,5,4822902,71742,4107092
2021,5,6,4880542,72662,4164098
