year,month,day,positive,death,recovered
2020,1,30,0,0,0
2020,1,31,0,0,0
2020,2,1,0,0,0
2020,2,2,0,0,0
2020,2,3,0,0,0
2020,2,4,0,0,0
2020,2,5,0,0,0
2020,2,6,0,0,0
2020,2,7,0,0,0
2020,2,8,0,0,0
2020,2,9,0,0,0
2020,2,10,0,0,0
2020,2,11,0,0,0
2020,2,12,0,0,0
2020,2,13,0,0,0
2020,2,14,0,0,0
2020,2,15,0,0,0
2020,2,16,0,0,0
2020,2,17,0,0,0
2020,2,18,0,0,0
2020,2,19,0,0,0
2020,2,20,0,0,0
2020,2,21,0,0,0
2020,2,22,0,0,0
2020,2,23,0,0,0
2020,2,24,0,0,0
2020,2,25,0,0,0
2020,2,26,0,0,0
2020,2,27,0,0,0
2020,2,28,0,0,0
2020,2,29,0,0,0
2020,3,1,0,0,0
2020,3,2,0,0,0
2020,3,3,0,0,0
2020,3,4,0,0,0
2020,3,5,0,0,0
2020,3,6,0,0,0
2020,3,7,0,0,0
2020,3,8,0,0,0
2020,3,9,0,0,0
2020,3,10,0,0,0
2020,3,11,0,0,0
2020,3,12,0,0,0
2020,3,13,0,0,0
2020,3,14,0,0,0
2020,3,15,0,0,0
2020,3,16,0,0,0
2020,3,17,0,0,0
2020,3,18,0,0,0
2020,3,19,0,0,0
2020,3,20,0,0,0
2020,3,21,0,0,0
2020,3,22,0,0,0
2020,3,23,0,0,0
2020,3,24,0,0,0
2020,3,25,0,0,0
2020,3,26,0,0,0
2020,3,27,0,0,0
2020,3,28,0,0,0
2020,3,29,0,0,0
2020,3,30,0,0,0
2020,3,31,0,0,0
2020,4,1,0,0,0
2020,4,2,0,0,0
2020,4,3,0,0,0
2020,4,4,0,0,0
2020,4,5,0,0,0
2020,4,6,0,0,0
2020,4,7,0,0,0
2020,4,8,0,0,0
2020,4,9,0,0,0
2020,4,10,0,0,0
2020,4,11,0,0,0
2020,4,12,0,0,0
2020,4,13,1,0,0
2020,4,14,1,0,0
2020,4,15,0,0,0
2020,4,16,0,0,0
2020,4,17,0,0,0
2020,4,18,0,0,0
2020,4,19,0,0,0
2020,4,20,0,0,0
2020,4,21,0,0,0
2020,4,22,0,0,0
2020,4,23,0,0,0
2020,4,24,0,0,0
2020,4,25,0,0,0
2020,4,26,0,0,0
2020,4,27,0,0,0
2020,4,28,0,0,0
2020,4,29,0,0,0
2020,4,30,0,0,0
2020,5,1,0,0,0
2020,5,2,0,0,0
2020,5,3,0,0,0
2020,5,4,0,0,0
2020,5,5,0,0,0
2020,5,6,0,0,0
2020,5,7,0,0,0
2020,5,8,0,0,0
2020,5,9,0,0,0
2020,5,10,0,0,0
2020,5,11,0,0,0
2020,5,12,0,0,0
2020,5,13,0,0,0
2020,5,14,0,0,0
2020,5,15,0,0,0
2020,5,16,0,0,0
2020,5,17,0,0,0
2020,5,18,0,0,0
2020,5,19,0,0,0
2020,5,20,0,0,0
2020,5,21,0,0,0
2020,5,22,0,0,0
2020,5,23,0,0,0
2020,5,24,0,0,0
2020,5,25,0,0,0
2020,5,26,3,0,0
2020,5,27,4,0,0
2020,5,28,4,0,0
2020,5,29,18,0,0
2020,5,30,25,0,0
2020,5,31,36,0,0
2020,6,1,43,0,0
2020,6,2,43,0,0
2020,6,3,49,0,0
2020,6,4,58,0,0
2020,6,5,80,0,0
2020,6,6,94,0,0
2020,6,7,107,0,0
2020,6,8,118,0,8
2020,6,9,123,0,8
2020,6,10,127,0,10
2020,6,11,128,0,22
2020,6,12,128,0,22
2020,6,13,156,0,49
2020,6,14,163,0,76
2020,6,15,168,0,88
2020,6,16,177,0,92
2020,6,17,179,0,92
2020,6,18,193,0,103
2020,6,19,193,0,103
2020,6,20,198,0,125
2020,6,21,201,0,138
2020,6,22,211,0,141
2020,6,23,280,0,141
2020,6,24,330,0,141
2020,6,25,347,0,148
2020,6,26,355,0,160
2020,6,27,371,0,162
2020,6,28,387,0,164
2020,6,29,415,0,164
2020,6,30,434,0,168
2020,7,1,459,0,168
2020,7,2,459,0,168
2020,7,3,501,0,182
2020,7,4,539,0,228
2020,7,5,563,0,228
2020,7,6,590,0,231
2020,7,7,625,0,243
2020,7,8,625,0,243
2020,7,9,657,0,304
2020,7,10,673,0,304
2020,7,11,732,0,304
2020,7,12,748,0,313
2020,7,13,774,0,327
2020,7,14,845,0,340
2020,7,15,896,0,346
2020,7,16,902,0,348
2020,7,17,916,0,391
2020,7,18,956,0,405
2020,7,19,978,0,432
2020,7,20,988,0,445
2020,7,21,1021,0,484
2020,7,22,1030,0,485
2020,7,23,1084,0,486
2020,7,24,1174,0,530
2020,7,25,1239,1,537
2020,7,26,1289,4,541
2020,7,27,1339,4,549
2020,7,28,1385,5,569
2020,7,29,1460,5,577
2020,7,30,1513,5,595
2020,7,31,1566,5,625
2020,8,1,1693,5,635
2020,8,2,1831,5,640
2020,8,3,1935,5,648
2020,8,4,2129,5,657
2020,8,5,2405,5,659
2020,8,6,2498,6,685
2020,8,7,2580,6,819
2020,8,8,2657,7,824
2020,8,9,2688,7,896
2020,8,10,2781,8,904
2020,8,11,3011,8,973
2020,8,12,3031,8,991
2020,8,13,3118,8,1113
2020,8,14,3168,8,1139
2020,8,15,3322,8,1198
2020,8,16,3340,8,1321
2020,8,17,3394,8,1422
2020,8,18,355,8,1530
2020,8,19,3520,8,1664
2020,8,20,3558,8,1706
2020,8,21,3583,8,1921
2020,8,22,3619,8,2074
2020,8,23,3635,9,2166
2020,8,24,3686,9,2294
2020,8,25,3714,9,2396
2020,8,26,3752,9,2611
2020,8,27,3778,9,2611
2020,8,28,3784,9,2735
2020,8,29,3805,9,2850
2020,8,30,3851,9,2917
2020,8,31,3922,9,3026
2020,9,1,3950,9,3067
2020,9,2,4003,9,3201
2020,9,3,4017,9,3223
2020,9,4,4066,9,3324
2020,9,5,4107,10,3361
2020,9,6,4128,10,3392
2020,9,7,4178,10,3511
2020,9,8,4220,10,3685
2020,9,9,4245,10,3739
2020,9,10,4375,10,3787
2020,9,11,4636,10,3792
2020,9,12,4946,10,3802
2020,9,13,5064,10,3839
2020,9,14,5083,10,3901
2020,9,15,5214,10,3915
2020,9,16,5229,15,3945
2020,9,17,5263,15,3987
2020,9,18,5306,15,4098
2020,9,19,5357,15,4129
2020,9,20,5392,15,4171
2020,9,21,5451,15,4252
2020,9,22,5544,15,4477
2020,9,23,5604,15,4517
2020,9,24,5671,16,4536
2020,9,25,5730,16,4626
2020,9,26,5768,16,4669
2020,9,27,5862,16,4819
2020,9,28,5946,16,4888
2020,9,29,5957,17,4938
2020,9,30,6040,17,4986
2020,10,1,6163,17,5066
2020,10,2,6244,17,5144
2020,10,3,6318,17,5211
2020,10,4,6429,17,5257
2020,10,5,6552,17,5309
2020,10,6,6594,17,5422
2020,10,7,6662,17,5460
2020,10,8,6715,17,5498
2020,10,9,6736,17,5564
2020,10,10,6888,17,5656
2020,10,11,6949,17,5694
2020,10,12,7019,17,5743
2020,10,13,7240,18,5813
2020,10,14,7363,19,5831
2020,10,15,7416,22,5916
2020,10,16,7492,22,6017
2020,10,17,7604,22,6111
2020,10,18,7698,27,6141
2020,10,19,7816,27,6206
2020,10,20,7953,27,6273
2020,10,21,8020,28,6334
2020,10,22,8139,28,6428
2020,10,23,8296,28,6469
2020,10,24,8436,28,6570
2020,10,25,8515,30,6668
2020,10,26,8626,31,6724
2020,10,27,8663,33,6792
2020,10,28,8726,33,6828
2020,10,29,8824,34,6945
2020,10,30,8894,35,7096
2020,10,31,8945,39,7308
2020,11,1,9047,39,7454
2020,11,2,9075,39,7535
2020,11,3,9096,42,7689
2020,11,4,9151,42,7869
2020,11,5,9207,44,8017
2020,11,6,9264,45,8161
2020,11,7,9327,45,8282
2020,11,8,9455,45,8336
2020,11,9,9474,46,8440
2020,11,10,9503,46,8513
2020,11,11,9536,50,8597
2020,11,12,9578,50,8687
2020,11,13,9615,50,8776
2020,11,14,9638,52,8859
2020,11,15,9750,52,8891
2020,11,16,9885,52,8913
2020,11,17,10025,53,8959
2020,11,18,10188,53,8997
2020,11,19,10366,54,9057
2020,11,20,10460,54,9110
2020,11,21,10608,56,9208
2020,11,22,10674,57,9242
2020,11,23,10777,59,9308
2020,11,24,10852,61,9347
2020,11,25,10931,61,9397
2020,11,26,10991,61,9463
2020,11,27,11060,63,9595
2020,11,28,11091,64,9805
2020,11,29,11115,64,9830
2020,11,30,11159,64,10005
2020,12,1,11186,64,10194
2020,12,2,11209,64,10302
2020,12,3,11254,64,10467
2020,12,4,11283,64,10520
2020,12,5,11305,65,10759
2020,12,6,11340,65,10761
2020,12,7,11379,66,10766
2020,12,8,11418,66,10773
2020,12,9,11479,67,10781
2020,12,10,11508,67,10849
2020,12,11,11602,68,10868
2020,12,12,11634,68,10934
2020,12,13,11676,68,10998
2020,12,14,11709,68,11007
2020,12,15,11728,69,11066
2020,12,16,11761,69,11097
2020,12,17,11787,70,11120
2020,12,18,11820,73,11200
2020,12,19,11832,73,11205
2020,12,20,11841,73,11230
2020,12,21,11842,73,11273
2020,12,22,11858,73,11323
2020,12,23,11866,76,11373
2020,12,24,11877,77,11423
2020,12,25,11890,77,11508
2020,12,26,11895,77,11544
2020,12,27,11897,78,11545
2020,12,28,11897,78,11568
2020,12,29,11911,79,11589
2020,12,30,11917,79,11595
2020,12,31,11921,79,11624
2021,1,1,11927,79,11646
2021,1,2,11929,79,11659
2021,1,3,11929,79,11664
2021,1,4,11930,79,11673
2021,1,5,11935,79,11683
2021,1,6,11937,79,11714
2021,1,7,11954,80,11737
2021,1,8,11960,82,11747
2021,1,9,11964,83,11752
2021,1,10,11975,84,11778
2021,1,11,11978,84,11778
2021,1,12,11987,84,11795
2021,1,13,11997,84,11807
2021,1,14,12003,86,11814
2021,1,15,12035,86,11825
2021,1,16,12039,88,11847
2021,1,17,12054,88,11849
2021,1,18,12058,88,11854
2021,1,19,12061,88,11858
2021,1,20,12066,88,11866
2021,1,21,12067,88,11873
2021,1,22,12070,88,11875
2021,1,23,12072,88,11880
2021,1,24,12076,88,11884
2021,1,25,12076,88,11885
2021,1,26,12079,88,11895
2021,1,27,12081,88,11898
2021,1,28,12083,88,11938
2021,1,29,12084,88,11944
2021,1,30,12088,88,11947
2021,1,31,12090,88,11950
2021,2,1,12094,88,11950
2021,2,2,12099,88,11957
2021,2,3,12101,88,11958
2021,2,4,12117,88,11963
2021,2,5,12121,88,11970
2021,2,6,12126,88,11970
2021,2,7,12148,88,11975
2021,2,8,12158,88,11975
2021,2,9,12160,88,11988
2021,2,10,12166,88,11990
2021,2,11,12168,88,11993
2021,2,12,12175,88,11998
2021,2,13,12176,88,12011
2021,2,14,12183,88,12019
2021,2,15,12189,88,12028
2021,2,16,12189,88,12043
2021,2,17,12190,90,12059
2021,2,18,12190,90,12064
2021,2,19,12191,91,12071
2021,2,20,12191,91,12080
2021,2,21,12191,91,12082
2021,2,22,12192,91,12088
2021,2,23,12192,91,12089
2021,2,24,12192,91,12089
2021,2,25,12192,91,12093
2021,2,26,12198,91,12094
2021,2,27,12198,91,12098
2021,2,28,12199,91,12098
2021,3,1,12200,91,12102
2021,3,2,12200,91,12102
2021,3,3,12200,91,12102
2021,3,4,12205,91,12102
2021,3,5,12210,91,12104
2021,3,6,12210,91,12104
2021,3,7,12211,91,12105
2021,3,8,12217,91,12106
2021,3,9,12217,91,12107
2021,3,10,12217,91,12108
2021,3,11,12217,91,12116
2021,3,12,12217,91,12116
2021,3,13,12221,91,12120
2021,3,14,12225,91,12120
2021,3,15,12225,91,12120
2021,3,16,12225,91,12120
2021,3,17,12225,91,12120
2021,3,18,12225,91,12127
2021,3,19,12225,91,12127
2021,3,20,12225,91,12132
2021,3,21,12225,91,12132
2021,3,22,12225,91,12132
2021,3,23,12225,91,12132
2021,3,24,12225,91,12132
2021,3,25,12226,91,12133
2021,3,26,12229,92,12133
2021,3,27,12229,92,12133
2021,3,28,12229,92,12133
2021,3,29,12230,92,12134
2021,3,30,12233,92,12134
2021,3,31,12233,92,12134
2021,4,1,12340,92,12136
2021,4,2,12345,92,12138
2021,4,3,12361,92,12138
2021,4,4,12362,92,12138
2021,4,5,12363,92,12138
2021,4,6,12365,92,12138
2021,4,7,12365,92,12140
2021,4,8,12376,92,12143
2021,4,9,12381,92,12143
2021,4,10,12388,92,12150
2021,4,11,12400,92,12152
2021,4,12,12405,93,12155
2021,4,13,12416,93,12156
2021,4,14,12427,93,12160
2021,4,15,12440,93,12263
2021,4,16,12482,93,12267
2021,4,17,12504,94,12271
2021,4,18,12536,94,12275
2021,4,19,12555,94,12285
2021,4,20,12568,94,12285
2021,4,21,12650,94,12299
2021,4,22,12747,94,12306
2021,4,23,12800,94,12322
2021,4,24,12889,94,12338
2021,4,25,13003,95,12350
2021,4,26,13183,98,12406
2021,4,27,13238,98,12413
2021,4,28,13445,99,12472
2021,4,29,13569,100,12516
2021,4,30,13750,100,12577
2021,5,1,13976,104,12611
2021,5,2,14134,107,12674
2021,5,3,14350,109,12712
2021,5,4,14451,115,12752
2021,5,5,14717,118,12801
2021,5,6,15004,118,12848
