year,month,day,positive,death,recovered
2020,1,30,0,0,0
2020,1,31,0,0,0
2020,2,1,0,0,0
2020,2,2,0,0,0
2020,2,3,0,0,0
2020,2,4,0,0,0
2020,2,5,0,0,0
2020,2,6,0,0,0
2020,2,7,0,0,0
2020,2,8,0,0,0
2020,2,9,0,0,0
2020,2,10,0,0,0
2020,2,11,0,0,0
2020,2,12,0,0,0
2020,2,13,0,0,0
2020,2,14,0,0,0
2020,2,15,0,0,0
2020,2,16,0,0,0
2020,2,17,0,0,0
2020,2,18,0,0,0
2020,2,19,0,0,0
2020,2,20,0,0,0
2020,2,21,0,0,0
2020,2,22,0,0,0
2020,2,23,0,0,0
2020,2,24,0,0,0
2020,2,25,0,0,0
2020,2,26,0,0,0
2020,2,27,0,0,0
2020,2,28,0,0,0
2020,2,29,0,0,0
2020,3,1,0,0,0
2020,3,2,0,0,0
2020,3,3,0,0,0
2020,3,4,0,0,0
2020,3,5,0,0,0
2020,3,6,0,0,0
2020,3,7,0,0,0
2020,3,8,0,0,0
2020,3,9,0,0,0
2020,3,10,1,0,0
2020,3,11,1,0,0
2020,3,12,1,0,0
2020,3,13,1,0,0
2020,3,14,1,0,0
2020,3,15,1,0,0
2020,3,16,1,0,0
2020,3,17,1,0,0
2020,3,18,1,0,0
2020,3,19,2,1,0
2020,3,20,2,1,0
2020,3,21,13,1,0
2020,3,22,21,1,0
2020,3,23,21,1,0
2020,3,24,29,1,0
2020,3,25,29,1,0
2020,3,26,33,1,0
2020,3,27,33,1,0
2020,3,28,38,1,1
2020,3,29,38,1,1
2020,3,30,38,1,1
2020,3,31,41,3,1
2020,4,1,42,3,1
2020,4,2,46,4,1
2020,4,3,48,5,1
2020,4,4,57,5,1
2020,4,5,57,5,1
2020,4,6,76,6,4
2020,4,7,91,7,4
2020,4,8,91,7,4
2020,4,9,101,8,4
2020,4,10,132,11,5
2020,4,11,132,11,5
2020,4,12,151,11,5
2020,4,13,167,11,14
2020,4,14,176,12,14
2020,4,15,186,13,14
2020,4,16,186,13,27
2020,4,17,186,13,27
2020,4,18,202,13,27
2020,4,19,219,16,31
2020,4,20,219,16,31
2020,4,21,245,16,39
2020,4,22,251,16,49
2020,4,23,277,16,65
2020,4,24,277,16,65
2020,4,25,298,17,67
2020,4,26,298,17,67
2020,4,27,313,18,71
2020,4,28,313,18,71
2020,4,29,322,19,71
2020,4,30,357,19,90
2020,5,1,357,19,90
2020,5,2,772,20,112
2020,5,3,772,20,112
2020,5,4,1102,21,117
2020,5,5,1233,23,128
2020,5,6,1451,25,133
2020,5,7,1516,27,135
2020,5,8,1644,28,149
2020,5,9,1731,29,152
2020,5,10,1762,31,157
2020,5,11,1823,31,166
2020,5,12,1877,31,168
2020,5,13,1914,32,171
2020,5,14,1924,32,200
2020,5,15,1935,32,223
2020,5,16,1935,32,305
2020,5,17,1946,32,1257
2020,5,18,1964,35,1366
2020,5,19,1980,37,1547
2020,5,20,2002,38,1642
2020,5,21,2005,38,1794
2020,5,22,2028,39,1819
2020,5,23,2029,39,1847
2020,5,24,2045,39,1870
2020,5,25,2060,40,1898
2020,5,26,2060,40,1898
2020,5,27,2106,40,1918
2020,5,28,2139,40,1918
2020,5,29,2158,40,1946
2020,5,30,2197,42,1949
2020,5,31,2233,44,1967
2020,6,1,2263,45,1987
2020,6,2,2301,45,2000
2020,6,3,2342,46,2017
2020,6,4,2376,47,2029
2020,6,5,2415,47,2043
2020,6,6,2461,48,2069
2020,6,7,2515,50,2092
2020,6,8,2608,51,2106
2020,6,9,2663,53,2128
2020,6,10,2719,55,2167
2020,6,11,2805,55,2232
2020,6,12,2887,59,2259
2020,6,13,2986,63,2282
2020,6,14,3063,65,2327
2020,6,15,3140,67,2356
2020,6,16,3267,71,2443
2020,6,17,3371,72,2461
2020,6,18,3497,78,2538
2020,6,19,3615,83,2570
2020,6,20,3832,92,2636
2020,6,21,3952,98,2678
2020,6,22,4074,99,2700
2020,6,23,4235,101,2825
2020,6,24,4397,105,3047
2020,6,25,4627,113,3099
2020,6,26,4769,120,3192
2020,6,27,4957,122,3201
2020,6,28,5056,128,3320
2020,6,29,5216,133,3526
2020,6,30,5418,138,3764
2020,7,1,5568,144,3867
2020,7,2,5668,149,3867
2020,7,3,5784,152,4144
2020,7,4,5937,157,4266
2020,7,5,6109,162,4306
2020,7,6,6283,164,4408
2020,7,7,6491,169,4494
2020,7,8,6749,175,4554
2020,7,9,6907,178,4828
2020,7,10,7140,183,4945
2020,7,11,7357,187,5017
2020,7,12,7587,195,5040
2020,7,13,7821,199,5392
2020,7,14,8178,204,5586
2020,7,15,8511,213,5663
2020,7,16,8799,221,5867
2020,7,17,9094,230,6277
2020,7,18,9442,239,6373
2020,7,19,9792,246,6454
2020,7,20,10100,254,6535
2020,7,21,10510,262,7118
2020,7,22,10889,263,7389
2020,7,23,11301,269,7641
2020,7,24,11739,277,7741
2020,7,25,12216,282,8096
2020,7,26,12684,291,8297
2020,7,27,13218,306,8810
2020,7,28,13769,318,9064
2020,7,29,14378,336,9752
2020,7,30,14946,361,10213
2020,7,31,15456,370,10509
2020,8,1,16119,386,10734
2020,8,2,17063,405,11075
2020,8,3,17853,423,11466
2020,8,4,18527,442,11882
2020,8,5,19015,462,12491
2020,8,6,19856,491,12943
2020,8,7,20891,517,13659
2020,8,8,21930,539,14040
2020,8,9,22928,562,14880
2020,8,10,23903,586,15319
2020,8,11,24889,604,15735
2020,8,12,25889,636,16790
2020,8,13,26909,675,17212
2020,8,14,27936,706,17839
2020,8,15,29013,731,18328
2020,8,16,30041,771,18863
2020,8,17,31206,812,19431
2020,8,18,32696,863,20180
2020,8,19,34400,898,21762
2020,8,20,36084,921,22703
2020,8,21,37824,957,23037
2020,8,22,39327,991,23893
2020,8,23,40643,1036,24302
2020,8,24,41779,1086,26528
2020,8,25,43284,1129,28357
2020,8,26,44577,1178,29145
2020,8,27,46090,1219,30231
2020,8,28,47836,1256,30972
2020,8,29,49378,1307,33008
2020,8,30,50848,1348,34091
2020,8,31,52526,1404,35747
2020,9,1,53992,1453,37027
2020,9,2,55508,1512,38147
2020,9,3,56989,1618,39742
2020,9,4,58515,1690,41271
2020,9,5,60013,1739,42543
2020,9,6,61527,1808,43849
2020,9,7,63473,1862,45455
2020,9,8,65583,1923,47020
2020,9,9,67547,1990,49327
2020,9,10,69684,2061,50558
2020,9,11,72143,2149,51906
2020,9,12,74616,2212,53308
2020,9,13,77057,2288,55385
2020,9,14,79679,2356,57536
2020,9,15,82113,2424,58999
2020,9,16,84482,2514,60814
2020,9,17,87184,2592,63570
2020,9,18,90032,2646,65818
2020,9,19,92833,2708,68463
2020,9,20,95529,2757,70373
2020,9,21,97689,2813,72598
2020,9,22,99930,2860,75409
2020,9,23,101341,2926,77127
2020,9,24,103464,2990,79244
2020,9,25,105220,3066,81475
2020,9,26,107096,3134,84025
2020,9,27,108684,3188,86013
2020,9,28,110106,3238,88312
2020,9,29,111375,3284,90345
2020,9,30,112460,3359,92277
2020,10,1,113886,3406,93666
2020,10,2,115151,3451,95937
2020,10,3,116213,3501,97777
2020,10,4,117319,3562,99468
2020,10,5,118157,3603,100977
2020,10,6,119184,3641,102648
2020,10,7,120016,3679,104355
2020,10,8,120860,3712,105585
2020,10,9,121716,3741,107200
2020,10,10,122459,3773,108533
2020,10,11,123317,3798,109767
2020,10,12,123973,3833,110865
2020,10,13,124535,3860,112099
2020,10,14,125211,3894,113105
2020,10,15,125760,3925,114075
2020,10,16,126230,3954,115186
2020,10,17,126737,3980,116165
2020,10,18,127154,3999,116925
2020,10,19,127630,4012,117883
2020,10,20,128103,4029,118767
2020,10,21,128590,4037,119658
2020,10,22,129088,4060,120220
2020,10,23,129693,4072,121155
2020,10,24,130157,4095,121735
2020,10,25,130640,4107,122256
2020,10,26,131055,4117,122721
2020,10,27,131391,4125,123047
2020,10,28,131737,4138,123510
2020,10,29,132263,4158,123866
2020,10,30,132727,4168,124293
2020,10,31,133158,4187,124870
2020,11,1,133658,4203,125198
2020,11,2,133975,4214,125566
2020,11,3,134371,4227,125961
2020,11,4,134786,4245,126315
2020,11,5,135313,4259,126583
2020,11,6,135834,4281,126932
2020,11,7,136481,4295,127304
2020,11,8,136958,4310,127821
2020,11,9,137445,4318,128217
2020,11,10,137999,4338,128727
2020,11,11,138485,4358,129089
2020,11,12,139184,4389,129549
2020,11,13,139869,4412,130018
2020,11,14,140605,4428,130406
2020,11,15,140605,4428,130406
2020,11,16,141658,4458,131431
2020,11,17,142082,4480,132001
2020,11,18,142597,4510,132266
2020,11,19,143395,4541,132917
2020,11,20,144177,4556,133427
2020,11,21,144995,4572,133919
2020,11,22,145667,4595,134511
2020,11,23,146346,4614,135008
2020,11,24,147057,4631,135739
2020,11,25,147665,4653,136178
2020,11,26,148435,4684,136622
2020,11,27,149278,4710,137089
2020,11,28,150086,4737,137630
2020,11,29,150805,4765,138206
2020,11,30,151538,4780,138870
2020,12,1,152091,4807,139442
2020,12,2,152709,4821,140254
2020,12,3,153308,4842,140772
2020,12,4,154064,4862,141478
2020,12,5,154788,4882,142121
2020,12,6,155424,4906,142791
2020,12,7,156226,4916,143414
2020,12,8,156839,4934,144301
2020,12,9,157331,4964,145093
2020,12,10,157928,4980,145623
2020,12,11,158556,5007,146126
2020,12,12,159099,5036,146777
2020,12,13,159579,5057,147431
2020,12,14,160200,5077,148047
2020,12,15,160659,5098,148680
2020,12,16,161053,5117,149434
2020,12,17,161383,5135,150007
2020,12,18,161831,5150,150636
2020,12,19,162270,5170,151119
2020,12,20,162705,5189,151679
2020,12,21,163042,5201,152223
2020,12,22,163378,5212,152758
2020,12,23,163665,5230,153382
2020,12,24,164145,5243,153964
2020,12,25,164505,5260,154433
2020,12,26,164821,5269,154845
2020,12,27,165126,5281,155409
2020,12,28,165405,5299,155892
2020,12,29,165668,5312,156342
2020,12,30,165878,5322,156719
2020,12,31,166239,5331,157043
2021,1,1,166522,5341,157496
2021,1,2,166770,5349,157904
2021,1,3,167012,5364,158219
2021,1,4,167219,5376,158482
2021,1,5,167441,5400,158972
2021,1,6,167652,5404,159265
2021,1,7,167910,5412,159500
2021,1,8,168187,5422,159790
2021,1,9,168486,5437,160042
2021,1,10,168734,5439,160343
2021,1,11,169033,5445,160655
2021,1,12,169225,5447,160920
2021,1,13,169479,5456,161235
2021,1,14,169737,5463,161457
2021,1,15,169950,5473,161710
2021,1,16,170191,5485,161967
2021,1,17,170366,5499,162289
2021,1,18,170605,5504,162484
2021,1,19,170729,5509,162762
2021,1,20,170937,5516,163009
2021,1,21,171136,5520,163211
2021,1,22,171316,5535,163438
2021,1,23,171522,5543,163655
2021,1,24,171733,5553,163887
2021,1,25,171930,5555,164119
2021,1,26,172089,5560,164377
2021,1,27,172218,5571,164541
2021,1,28,172406,5581,164745
2021,1,29,172606,5590,164937
2021,1,30,172860,5601,165145
2021,1,31,173084,5609,165291
2021,2,1,173276,5615,165533
2021,2,2,173470,5616,165753
2021,2,3,173674,5628,165924
2021,2,4,173861,5628,166103
2021,2,5,174057,5635,166263
2021,2,6,174256,5635,166477
2021,2,7,174439,5640,166643
2021,2,8,174646,5642,166828
2021,2,9,174838,5653,167073
2021,2,10,175023,5661,167285
2021,2,11,175252,5675,167465
2021,2,12,175558,5682,167652
2021,2,13,175804,5690,167814
2021,2,14,176064,5694,168035
2021,2,15,176296,5697,168239
2021,2,16,176520,5707,168456
2021,2,17,176767,5712,168654
2021,2,18,177101,5722,168833
2021,2,19,177376,5732,169002
2021,2,20,177759,5740,169216
2021,2,21,178111,5748,169480
2021,2,22,178459,5754,169686
2021,2,23,178847,5769,169911
2021,2,24,179261,5779,170187
2021,2,25,179819,5786,170435
2021,2,26,180382,5799,170713
2021,2,27,181004,5814,170968
2021,2,28,181597,5825,171336
2021,3,1,182176,5832,171712
2021,3,2,182809,5850,172106
2021,3,3,183538,5860,172480
2021,3,4,184310,5872,172845
2021,3,5,185381,5887,173230
2021,3,6,186189,5898,173630
2021,3,7,187348,5910,174274
2021,3,8,188391,5927,174967
2021,3,9,189620,5941,175659
2021,3,10,190647,5961,176164
2021,3,11,192040,5978,176660
2021,3,12,193345,5996,177280
2021,3,13,194753,6030,178271
2021,3,14,196263,6052,179295
2021,3,15,197755,6072,180133
2021,3,16,199573,6099,181532
2021,3,17,201036,6137,182283
2021,3,18,203049,6172,183557
2021,3,19,205418,6204,184848
2021,3,20,207888,6242,186187
2021,3,21,210466,6280,187198
2021,3,22,213110,6324,188529
2021,3,23,215409,6382,190399
2021,3,24,217663,6435,191825
2021,3,25,220276,6474,193280
2021,3,26,222937,6517,195015
2021,3,27,226059,6576,196831
2021,3,28,228864,6621,198972
2021,3,29,231734,6690,201127
2021,3,30,234602,6749,203710
2021,3,31,236790,6813,206246
2021,4,1,239734,6868,209034
2021,4,2,242895,6926,211325
2021,4,3,245768,6983,213327
2021,4,4,248454,7032,216108
2021,4,5,251460,7083,219063
2021,4,6,254152,7155,221578
2021,4,7,257057,7216,223928
2021,4,8,260020,7278,226887
2021,4,9,263090,7334,229367
2021,4,10,266494,7390,231885
2021,4,11,269733,7448,234270
2021,4,12,272772,7507,237391
2021,4,13,276223,7559,240798
2021,4,14,279203,7609,243410
2021,4,15,282505,7672,246583
2021,4,16,286816,7722,249061
2021,4,17,290707,7772,252190
2021,4,18,295138,7834,254805
2021,4,19,300038,7902,257946
2021,4,20,304660,7985,261364
2021,4,21,309316,8045,264562
2021,4,22,314269,8114,267289
2021,4,23,319719,8189,270946
2021,4,24,326447,8264,274240
2021,4,25,332110,8356,277189
2021,4,26,339090,8432,282504
2021,4,27,345366,8530,286942
2021,4,28,351282,8630,290716
2021,4,29,358186,8772,295988
2021,4,30,364910,8909,301047
2021,5,1,370973,9022,306153
2021,5,2,377990,9160,310601
2021,5,3,385270,9317,315845
2021,5,4,392042,9472,321861
2021,5,5,399556,9645,327976
2021,5,6,407509,9825,334677
