year,month,day,positive,death,recovered
2020,1,30,0,0,0
2020,1,31,0,0,0
2020,2,1,0,0,0
2020,2,2,0,0,0
2020,2,3,0,0,0
2020,2,4,0,0,0
2020,2,5,0,0,0
2020,2,6,0,0,0
2020,2,7,0,0,0
2020,2,8,0,0,0
2020,2,9,0,0,0
2020,2,10,0,0,0
2020,2,11,0,0,0
2020,2,12,0,0,0
2020,2,13,0,0,0
2020,2,14,0,0,0
2020,2,15,0,0,0
2020,2,16,0,0,0
2020,2,17,0,0,0
2020,2,18,0,0,0
2020,2,19,0,0,0
2020,2,20,0,0,0
2020,2,21,0,0,0
2020,2,22,0,0,0
2020,2,23,0,0,0
2020,2,24,0,0,0
2020,2,25,0,0,0
2020,2,26,0,0,0
2020,2,27,0,0,0
2020,2,28,0,0,0
2020,2,29,0,0,0
2020,3,1,0,0,0
2020,3,2,1,0,0
2020,3,3,1,0,0
2020,3,4,0,0,0
2020,3,5,0,0,0
2020,3,6,0,0,0
2020,3,7,0,0,0
2020,3,8,0,0,0
2020,3,9,0,0,0
2020,3,10,1,0,0
2020,3,11,1,0,0
2020,3,12,1,0,0
2020,3,13,1,0,0
2020,3,14,1,0,0
2020,3,15,3,0,1
2020,3,16,3,0,1
2020,3,17,5,0,1
2020,3,18,6,0,1
2020,3,19,6,0,1
2020,3,20,17,0,1
2020,3,21,21,0,1
2020,3,22,22,0,1
2020,3,23,32,0,1
2020,3,24,35,0,1
2020,3,25,35,0,1
2020,3,26,44,0,1
2020,3,27,45,0,1
2020,3,28,56,0,1
2020,3,29,66,1,1
2020,3,30,71,1,1
2020,3,31,79,1,1
2020,4,1,96,3,1
2020,4,2,107,3,1
2020,4,3,158,7,1
2020,4,4,159,7,1
2020,4,5,269,7,32
2020,4,6,321,7,34
2020,4,7,364,7,35
2020,4,8,427,7,35
2020,4,9,442,7,35
2020,4,10,473,7,35
2020,4,11,504,9,43
2020,4,12,504,9,43
2020,4,13,562,16,100
2020,4,14,624,17,100
2020,4,15,647,18,120
2020,4,16,698,18,120
2020,4,17,743,18,186
2020,4,18,791,18,186
2020,4,19,844,18,186
2020,4,20,873,21,190
2020,4,21,919,23,190
2020,4,22,945,23,194
2020,4,23,960,24,197
2020,4,24,984,26,253
2020,4,25,984,26,253
2020,4,26,991,26,280
2020,4,27,1002,26,280
2020,4,28,1004,26,321
2020,4,29,1012,26,367
2020,4,30,1012,26,367
2020,5,1,1039,26,441
2020,5,2,1057,26,441
2020,5,3,1063,28,458
2020,5,4,1082,29,490
2020,5,5,1085,29,585
2020,5,6,1096,29,585
2020,5,7,1107,29,628
2020,5,8,1123,29,650
2020,5,9,1133,29,700
2020,5,10,1163,30,750
2020,5,11,1196,30,750
2020,5,12,1275,30,800
2020,5,13,1326,32,830
2020,5,14,1367,34,940
2020,5,15,1414,34,950
2020,5,16,1454,34,959
2020,5,17,1509,34,971
2020,5,18,1551,34,992
2020,5,19,1597,35,1000
2020,5,20,1634,38,1010
2020,5,21,1661,40,1015
2020,5,22,1699,45,1035
2020,5,23,1761,45,1043
2020,5,24,1813,49,1065
2020,5,25,1854,53,1090
2020,5,26,1920,56,1164
2020,5,27,1991,57,1284
2020,5,28,2098,63,1284
2020,5,29,2256,67,1345
2020,5,30,2425,71,1381
2020,5,31,2499,77,1412
2020,6,1,2698,82,1428
2020,6,2,2792,88,1491
2020,6,3,2891,92,1526
2020,6,4,3020,99,1556
2020,6,5,3147,105,1587
2020,6,6,3290,113,1627
2020,6,7,3496,123,1710
2020,6,8,3580,123,1710
2020,6,9,3650,137,1710
2020,6,10,3920,148,1809
2020,6,11,4111,156,1817
2020,6,12,4320,165,1993
2020,6,13,4484,174,2278
2020,6,14,4737,182,2352
2020,6,15,4974,185,2377
2020,6,16,5193,187,2766
2020,6,17,5406,191,3027
2020,6,18,5675,192,3071
2020,6,19,6027,195,3301
2020,6,20,6526,198,3353
2020,6,21,7072,203,3506
2020,6,22,7802,210,3731
2020,6,23,8674,217,4005
2020,6,24,9553,220,4224
2020,6,25,10444,225,4361
2020,6,26,11364,230,4688
2020,6,27,12349,237,4766
2020,6,28,13436,243,4928
2020,6,29,14419,247,5172
2020,6,30,15394,253,5582
2020,7,1,16339,260,7294
2020,7,2,17357,267,8082
2020,7,3,18570,275,9069
2020,7,4,20462,283,10195
2020,7,5,22312,288,11537
2020,7,6,23902,295,12703
2020,7,7,25733,306,14781
2020,7,8,27612,313,16287
2020,7,9,29536,324,17279
2020,7,10,30946,331,18192
2020,7,11,32224,339,19205
2020,7,12,33402,348,20919
2020,7,13,34671,356,22482
2020,7,14,36221,365,23679
2020,7,15,37745,375,24840
2020,7,16,39342,386,25999
2020,7,17,41018,396,27295
2020,7,18,42496,403,28705
2020,7,19,43780,409,30607
2020,7,20,45076,415,32438
2020,7,21,46274,422,34323
2020,7,22,47705,429,37385
2020,7,23,49259,438,37666
2020,7,24,50826,447,39327
2020,7,25,52466,455,40334
2020,7,26,52466,455,40334
2020,7,27,54059,463,41332
2020,7,28,57142,480,42909
2020,7,29,57142,480,42909
2020,7,30,58906,492,43751
2020,7,31,60717,505,44572
2020,8,1,62703,519,45388
2020,8,2,64786,530,46502
2020,8,3,66677,540,47590
2020,8,4,68946,563,49675
2020,8,5,70958,576,50814
2020,8,6,73050,589,52103
2020,8,7,75257,601,53239
2020,8,8,77513,615,54330
2020,8,9,79495,627,55999
2020,8,10,80751,637,57586
2020,8,11,82647,645,59374
2020,8,12,84544,654,61294
2020,8,13,86475,665,63074
2020,8,14,88396,674,64284
2020,8,15,90259,684,66196
2020,8,16,91361,693,68126
2020,8,17,92255,703,70132
2020,8,18,93937,711,72202
2020,8,19,95700,719,73991
2020,8,20,97424,729,75186
2020,8,21,99391,737,76967
2020,8,22,101865,744,78735
2020,8,23,104249,755,80586
2020,8,24,106091,761,82411
2020,8,25,108670,770,84163
2020,8,26,111688,780,85223
2020,8,27,114483,788,86095
2020,8,28,117415,799,87675
2020,8,29,120166,808,89350
2020,8,30,123090,818,90988
2020,8,31,124963,827,92837
2020,9,1,127697,836,95162
2020,9,2,130589,846,97402
2020,9,3,133406,856,100013
2020,9,4,135884,866,102024
2020,9,5,138395,877,104603
2020,9,6,140969,886,107530
2020,9,7,142771,895,110241
2020,9,8,145163,906,112587
2020,9,9,147642,916,115072
2020,9,10,150176,927,117143
2020,9,11,152602,940,119467
2020,9,12,154880,950,121925
2020,9,13,157096,961,124528
2020,9,14,158513,974,127007
2020,9,15,160571,984,129187
2020,9,16,162844,996,131447
2020,9,17,165003,1005,133555
2020,9,18,167046,1016,135357
2020,9,19,169169,1025,137508
2020,9,20,171306,1033,139700
2020,9,21,172608,1042,141930
2020,9,22,174774,1052,144073
2020,9,23,177070,1062,146135
2020,9,24,179246,1070,148139
2020,9,25,181627,1080,150160
2020,9,26,183866,1091,152441
2020,9,27,185833,1100,154499
2020,9,28,187211,1107,156431
2020,9,29,189283,1116,158690
2020,9,30,191386,1127,160933
2020,10,1,193600,1135,163407
2020,10,2,195609,1145,165844
2020,10,3,197327,1153,167846
2020,10,4,199276,1163,170212
2020,10,5,200611,1171,172388
2020,10,6,202594,1181,174769
2020,10,7,204748,1189,177008
2020,10,8,206644,1201,179075
2020,10,9,208535,1208,180953
2020,10,10,210346,1217,183025
2020,10,11,212063,1222,185128
2020,10,12,213084,1228,187342
2020,10,13,214792,1233,189351
2020,10,14,216238,1241,191269
2020,10,15,217670,1249,193218
2020,10,16,219224,1256,194653
2020,10,17,220675,1265,196636
2020,10,18,222111,1271,198790
2020,10,19,223059,1275,200686
2020,10,20,224545,1282,202577
2020,10,21,226124,1287,204388
2020,10,22,227580,1292,206105
2020,10,23,229001,1298,207326
2020,10,24,230274,1303,209034
2020,10,25,231252,1307,210480
2020,10,26,231834,1311,211912
2020,10,27,232671,1315,213466
2020,10,28,234152,1319,214917
2020,10,29,235656,1324,216353
2020,10,30,237187,1330,217401
2020,10,31,238632,1336,218887
2020,11,1,240048,1341,220466
2020,11,2,240970,1348,221992
2020,11,3,242506,1351,223413
2020,11,4,244143,1357,224686
2020,11,5,245682,1362,225664
2020,11,6,247284,1366,226646
2020,11,7,248891,1372,227583
2020,11,8,250331,1377,229064
2020,11,9,251188,1381,230568
2020,11,10,252455,1385,232489
2020,11,11,253651,1390,234234
2020,11,12,254666,1393,235950
2020,11,13,255663,1397,237172
2020,11,14,256713,1401,238908
2020,11,15,257374,1404,240545
2020,11,16,257876,1407,242084
2020,11,17,258828,1410,243686
2020,11,18,259776,1415,245293
2020,11,19,260834,1419,246733
2020,11,20,261728,1423,247790
2020,11,21,262653,1426,249157
2020,11,22,263526,1430,250453
2020,11,23,264128,1433,251468
2020,11,24,265049,1437,252565
2020,11,25,266042,1441,253715
2020,11,26,266904,1444,254676
2020,11,27,267665,1448,255378
2020,11,28,268418,1451,256330
2020,11,29,269223,1455,257278
2020,11,30,269816,1458,258336
2020,12,1,270318,1461,259230
2020,12,2,270883,1462,260155
2020,12,3,271492,1465,261028
2020,12,4,272123,1467,261830
2020,12,5,272719,1470,262751
2020,12,6,273341,1472,263744
2020,12,7,273858,1474,264606
2020,12,8,274540,1477,265367
2020,12,9,275261,1480,266120
2020,12,10,275904,1482,266925
2020,12,11,276516,1485,267427
2020,12,12,277151,1489,267992
2020,12,13,277724,1493,268601
2020,12,14,278108,1496,269232
2020,12,15,278599,1499,269828
2020,12,16,279135,1502,270450
2020,12,17,279644,1505,270967
2020,12,18,280195,1506,271649
2020,12,19,280822,1510,272370
2020,12,20,281414,1513,273013
2020,12,21,281730,1515,273625
2020,12,22,282347,1518,274260
2020,12,23,282982,1522,274833
2020,12,24,283556,1524,275217
2020,12,25,284074,1527,275708
2020,12,26,284391,1529,276244
2020,12,27,284863,1531,276753
2020,12,28,285068,1533,277304
2020,12,29,285465,1535,277931
2020,12,30,285939,1538,278523
2020,12,31,286354,1541,278839
2021,1,1,286815,1544,279456
2021,1,2,287108,1546,279991
2021,1,3,287502,1549,280565
2021,1,4,287740,1551,281083
2021,1,5,287993,1554,281400
2021,1,6,288410,1556,281872
2021,1,7,288789,1559,282177
2021,1,8,289135,1561,282574
2021,1,9,289433,1563,283048
2021,1,10,289784,1565,283463
2021,1,11,290008,1566,283924
2021,1,12,290309,1568,284217
2021,1,13,290640,1571,284611
2021,1,14,290916,1572,284849
2021,1,15,291118,1574,285102
2021,1,16,291367,1575,285519
2021,1,17,291666,1577,285898
2021,1,18,291872,1579,286244
2021,1,19,292128,1581,286542
2021,1,20,292395,1583,286893
2021,1,21,292621,1584,287117
2021,1,22,292835,1586,287468
2021,1,23,293056,1588,287899
2021,1,24,293253,1589,288275
2021,1,25,293401,1590,288577
2021,1,26,293590,1592,288926
2021,1,27,293737,1593,289325
2021,1,28,293923,1594,289631
2021,1,29,294120,1596,289987
2021,1,30,294306,1598,290354
2021,1,31,294469,1599,290630
2021,2,1,294587,1601,290894
2021,2,2,294739,1602,291115
2021,2,3,294924,1604,291312
2021,2,4,295101,1606,291510
2021,2,5,295270,1607,291699
2021,2,6,295431,1608,291846
2021,2,7,295581,1610,292032
2021,2,8,295682,1611,292229
2021,2,9,295831,1612,292415
2021,2,10,295988,1613,292578
2021,2,11,296134,1613,292696
2021,2,12,296277,1614,292848
2021,2,13,296428,1614,293033
2021,2,14,296574,1616,293210
2021,2,15,296673,1618,293379
2021,2,16,296802,1619,293540
2021,2,17,296950,1620,293690
2021,2,18,297113,1622,293791
2021,2,19,297278,1623,293940
2021,2,20,297435,1623,294097
2021,2,21,297598,1624,294243
2021,2,22,297712,1625,294386
2021,2,23,297861,1627,294537
2021,2,24,298057,1629,294683
2021,2,25,298264,1630,294782
2021,2,26,298453,1632,294911
2021,2,27,298631,1633,295059
2021,2,28,298807,1634,295222
2021,3,1,298923,1634,295387
2021,3,2,299086,1635,295544
2021,3,3,299254,1635,295707
2021,3,4,299406,1637,295821
2021,3,5,299572,1639,295970
2021,3,6,299742,1640,296166
2021,3,7,299900,1641,296373
2021,3,8,300011,1642,296562
2021,3,9,300153,1644,296740
2021,3,10,300342,1646,296916
2021,3,11,300536,1649,297032
2021,3,12,300717,1650,297195
2021,3,13,300933,1652,297363
2021,3,14,301161,1653,297515
2021,3,15,301318,1654,297681
2021,3,16,301522,1656,297851
2021,3,17,301769,1659,298009
2021,3,18,302047,1662,298120
2021,3,19,302360,1664,298262
2021,3,20,302724,1666,298451
2021,3,21,303118,1669,298645
2021,3,22,303455,1671,298826
2021,3,23,303867,1674,299042
2021,3,24,304298,1676,299270
2021,3,25,304791,1680,299427
2021,3,26,305309,1683,299631
2021,3,27,305804,1685,299878
2021,3,28,306339,1688,300156
2021,3,29,306742,1690,300469
2021,3,30,307205,1694,300833
2021,3,31,307889,1697,301227
2021,4,1,308776,1701,301564
2021,4,2,309741,1706,301876
2021,4,3,310819,1712,302207
2021,4,4,312140,1717,302500
2021,4,5,313237,1723,302768
2021,4,6,314735,1729,303013
2021,4,7,316649,1734,303298
2021,4,8,319054,1741,303601
2021,4,9,321182,1746,303964
2021,4,10,324091,1752,304548
2021,4,11,327278,1759,305335
2021,4,12,329529,1765,305900
2021,4,13,332581,1772,306678
2021,4,14,334738,1780,307499
2021,4,15,338045,1788,308396
2021,4,16,341885,1797,309594
2021,4,17,346331,1809,311008
2021,4,18,351424,1824,312563
2021,4,19,355433,1838,314441
2021,4,20,361359,1856,316650
2021,4,21,367901,1876,319537
2021,4,22,373468,1899,321788
2021,4,23,379494,1928,324840
2021,4,24,387106,1961,326997
2021,4,25,395232,1999,330304
2021,4,26,401783,2042,334144
2021,4,27,411905,2094,340590
2021,4,28,419966,2150,345683
2021,4,29,427960,2208,349692
2021,4,30,435606,2261,355618
2021,5,1,443360,2312,362160
2021,5,2,450790,2368,367727
2021,5,3,456485,2417,373933
2021,5,4,463361,2476,381365
2021,5,5,469722,2527,389491
2021,5,6,475748,2579,396042
